dump.vcd
$date
	Fri Dec  5 00:12:14 2025
$end
$version
	Icarus Verilog
$end
$timescale
	1ps
$end
$scope module testbench $end
$var reg 1 ! clk $end
$var reg 1 " rst $end
$var integer 32 # failed_tests [31:0] $end
$var integer 32 $ passed_tests [31:0] $end
$var integer 32 % total_tests [31:0] $end
$scope module dut $end
$var wire 1 ! clk $end
$var wire 1 & pc_src $end
$var wire 1 " rst $end
$var wire 32 ' write_back_data [31:0] $end
$var wire 2 ( sel_result [1:0] $end
$var wire 3 ) sel_ext [2:0] $end
$var wire 1 * sel_alu_src_b $end
$var wire 5 + rs2 [4:0] $end
$var wire 5 , rs1 [4:0] $end
$var wire 1 - rf_we $end
$var wire 32 . reg_rd2 [31:0] $end
$var wire 32 / reg_rd1 [31:0] $end
$var wire 5 0 rd [4:0] $end
$var wire 32 1 pc_target [31:0] $end
$var wire 32 2 pc_plus4 [31:0] $end
$var wire 32 3 pc_next [31:0] $end
$var wire 32 4 pc_current [31:0] $end
$var wire 7 5 opcode [6:0] $end
$var wire 32 6 mem_read_data [31:0] $end
$var wire 1 7 jump $end
$var wire 32 8 instruction [31:0] $end
$var wire 32 9 imm_ext [31:0] $end
$var wire 7 : funct7 [6:0] $end
$var wire 3 ; funct3 [2:0] $end
$var wire 1 < dmem_we $end
$var wire 1 = branch $end
$var wire 1 > alu_zero $end
$var wire 32 ? alu_src_b [31:0] $end
$var wire 32 @ alu_result [31:0] $end
$var wire 4 A alu_control [3:0] $end
$scope module alu_inst $end
$var wire 1 > zero $end
$var wire 32 B b [31:0] $end
$var wire 4 C alu_control [3:0] $end
$var wire 32 D a [31:0] $end
$var reg 32 E result [31:0] $end
$upscope $end
$scope module alu_src_b_mux $end
$var wire 32 F y [31:0] $end
$var wire 1 * sel $end
$var wire 32 G d1 [31:0] $end
$var wire 32 H d0 [31:0] $end
$var parameter 32 I WIDTH $end
$upscope $end
$scope module ctrl $end
$var wire 3 J funct3 [2:0] $end
$var wire 7 K funct7 [6:0] $end
$var wire 7 L opcode [6:0] $end
$var reg 4 M alu_control [3:0] $end
$var reg 2 N alu_op [1:0] $end
$var reg 1 = branch $end
$var reg 1 < dmem_we $end
$var reg 1 7 jump $end
$var reg 1 - rf_we $end
$var reg 1 * sel_alu_src_b $end
$var reg 3 O sel_ext [2:0] $end
$var reg 2 P sel_result [1:0] $end
$upscope $end
$scope module dmem $end
$var wire 32 Q addr [31:0] $end
$var wire 1 ! clk $end
$var wire 32 R rd [31:0] $end
$var wire 1 < we $end
$var wire 32 S wd [31:0] $end
$var integer 32 T i [31:0] $end
$upscope $end
$scope module imem $end
$var wire 32 U rd [31:0] $end
$var wire 32 V addr [31:0] $end
$var integer 32 W i [31:0] $end
$upscope $end
$scope module pc_inst $end
$var wire 1 ! clk $end
$var wire 1 " rst $end
$var wire 32 X pc_next [31:0] $end
$var reg 32 Y pc_current [31:0] $end
$upscope $end
$scope module pc_plus4_adder $end
$var wire 32 Z a [31:0] $end
$var wire 32 [ b [31:0] $end
$var wire 32 \ sum [31:0] $end
$var parameter 32 ] WIDTH $end
$upscope $end
$scope module pc_src_mux $end
$var wire 32 ^ d0 [31:0] $end
$var wire 1 & sel $end
$var wire 32 _ y [31:0] $end
$var wire 32 ` d1 [31:0] $end
$var parameter 32 a WIDTH $end
$upscope $end
$scope module pc_target_adder $end
$var wire 32 b a [31:0] $end
$var wire 32 c sum [31:0] $end
$var wire 32 d b [31:0] $end
$var parameter 32 e WIDTH $end
$upscope $end
$scope module reg_file $end
$var wire 5 f a1 [4:0] $end
$var wire 5 g a2 [4:0] $end
$var wire 5 h a3 [4:0] $end
$var wire 1 ! clk $end
$var wire 1 " rst $end
$var wire 1 - we $end
$var wire 32 i wd [31:0] $end
$var wire 32 j rd2 [31:0] $end
$var wire 32 k rd1 [31:0] $end
$var integer 32 l i [31:0] $end
$upscope $end
$scope module result_mux $end
$var wire 32 m d0 [31:0] $end
$var wire 32 n d1 [31:0] $end
$var wire 32 o d2 [31:0] $end
$var wire 2 p sel [1:0] $end
$var wire 32 q d3 [31:0] $end
$var parameter 32 r WIDTH $end
$var reg 32 s y [31:0] $end
$upscope $end
$scope module sign_ext $end
$var wire 25 t instr [31:7] $end
$var wire 3 u sel_ext [2:0] $end
$var reg 32 v imm_ext [31:0] $end
$upscope $end
$upscope $end
$scope task check_memory $end
$var reg 32 w addr [31:0] $end
$var reg 32 x expected [31:0] $end
$var reg 1601 y test_name [1600:0] $end
$upscope $end
$scope task check_register $end
$var reg 32 z expected [31:0] $end
$var reg 5 { reg_num [4:0] $end
$var reg 1601 | test_name [1600:0] $end
$upscope $end
$upscope $end
$scope module testbench $end
$scope module dut $end
$scope module alu_inst $end
$upscope $end
$scope module alu_src_b_mux $end
$upscope $end
$scope module ctrl $end
$upscope $end
$scope module dmem $end
$upscope $end
$scope module imem $end
$upscope $end
$scope module pc_inst $end
$upscope $end
$scope module pc_plus4_adder $end
$upscope $end
$scope module pc_src_mux $end
$upscope $end
$scope module pc_target_adder $end
$upscope $end
$scope module reg_file $end
$upscope $end
$scope module result_mux $end
$upscope $end
$scope module sign_ext $end
$upscope $end
$upscope $end
$scope task check_memory $end
$upscope $end
$scope task check_register $end
$upscope $end
$upscope $end
$enddefinitions $end
$comment Show the parameter values. $end
$dumpall
b100000 r
b100000 e
b100000 a
b100000 ]
b100000 I
$end
#0
$dumpvars
bx |
bx {
bx z
bx y
bx x
bx w
b1111 v
b0 u
b11110000000000001 t
b1111 s
b1111 q
b0 p
b100 o
b0 n
b1111 m
b100000 l
b0 k
b0 j
b1111 i
b1 h
b1111 g
b0 f
b1111 d
b1111 c
b0 b
b1111 `
b100 _
b100 ^
b100 \
b100 [
b0 Z
b0 Y
b100 X
b10000000000 W
b0 V
b111100000000000010010011 U
b10000000000 T
b0 S
b0 R
b1111 Q
b0 P
b0 O
b10 N
b0 M
b10011 L
b0 K
b0 J
b0 H
b1111 G
b1111 F
b1111 E
b0 D
b0 C
b1111 B
b0 A
b1111 @
b1111 ?
0>
0=
0<
b0 ;
b0 :
b1111 9
b111100000000000010010011 8
07
b0 6
b10011 5
b0 4
b100 3
b100 2
b1111 1
b1 0
b0 /
b0 .
1-
b0 ,
b1111 +
1*
b0 )
b0 (
b1111 '
0&
b0 %
b0 $
b0 #
1"
0!
$end
#10000
b100000 l
1!
#15000
0"
#20000
0!
#30000
b1010 '
b1010 i
b1010 s
b1010 @
b1010 E
b1010 Q
b1010 m
b1010 ?
b1010 B
b1010 F
b1010 9
b1010 G
b1010 d
b1010 q
b1010 v
b10100000000000010 t
b1010 +
b1010 g
b10 0
b10 h
b1000 3
b1000 X
b1000 _
b101000000000000100010011 8
b101000000000000100010011 U
b1000 2
b1000 \
b1000 ^
b1000 o
b1110 1
b1110 `
b1110 c
b100 4
b100 V
b100 Y
b100 Z
b100 b
1!
#40000
0!
#50000
bx 6
bx R
bx n
b11111111111111111111111111111011 '
b11111111111111111111111111111011 i
b11111111111111111111111111111011 s
b11111111111111111111111111111011 @
b11111111111111111111111111111011 E
b11111111111111111111111111111011 Q
b11111111111111111111111111111011 m
b11111111111111111111111111111011 ?
b11111111111111111111111111111011 B
b11111111111111111111111111111011 F
b11111111111111111111111111111011 9
b11111111111111111111111111111011 G
b11111111111111111111111111111011 d
b11111111111111111111111111111011 q
b11111111111111111111111111111011 v
b1111111110110000000000011 t
b1111111 :
b1111111 K
b11011 +
b11011 g
b11 0
b11 h
b1100 3
b1100 X
b1100 _
b11111111101100000000000110010011 8
b11111111101100000000000110010011 U
b1100 2
b1100 \
b1100 ^
b1100 o
b11 1
b11 `
b11 c
b1000 4
b1000 V
b1000 Y
b1000 Z
b1000 b
1!
#60000
0!
#70000
b11111111111111111111111111111000 '
b11111111111111111111111111111000 i
b11111111111111111111111111111000 s
b11111111111111111111111111111000 @
b11111111111111111111111111111000 E
b11111111111111111111111111111000 Q
b11111111111111111111111111111000 m
b11111111111111111111111111111000 ?
b11111111111111111111111111111000 B
b11111111111111111111111111111000 F
b11111111111111111111111111111000 9
b11111111111111111111111111111000 G
b11111111111111111111111111111000 d
b11111111111111111111111111111000 q
b11111111111111111111111111111000 v
b1111111110000000000000100 t
b11000 +
b11000 g
b100 0
b100 h
b10000 3
b10000 X
b10000 _
b11111111100000000000001000010011 8
b11111111100000000000001000010011 U
b10000 2
b10000 \
b10000 ^
b10000 o
b100 1
b100 `
b100 c
b1100 4
b1100 V
b1100 Y
b1100 Z
b1100 b
1!
#80000
0!
#90000
b0 6
b0 R
b0 n
b1 '
b1 i
b1 s
b1 @
b1 E
b1 Q
b1 m
b1 ?
b1 B
b1 F
b1 9
b1 G
b1 d
b1 q
b1 v
b1111 .
b1111 H
b1111 S
b1111 j
b10000000000101 t
b0 :
b0 K
b1 +
b1 g
b101 0
b101 h
b10100 3
b10100 X
b10100 _
b100000000001010010011 8
b100000000001010010011 U
b10100 2
b10100 \
b10100 ^
b10100 o
b10001 1
b10001 `
b10001 c
b10000 4
b10000 V
b10000 Y
b10000 Z
b10000 b
1!
#100000
0!
#110000
bx 6
bx R
bx n
b11111111111111111111111111111011 @
b11111111111111111111111111111011 E
b11111111111111111111111111111011 Q
b11111111111111111111111111111011 m
b10010001101000101000000000000 '
b10010001101000101000000000000 i
b10010001101000101000000000000 s
b11111111111111111111111111111011 ?
b11111111111111111111111111111011 B
b11111111111111111111111111111011 F
b10010001101000101000000000000 9
b10010001101000101000000000000 G
b10010001101000101000000000000 d
b10010001101000101000000000000 q
b10010001101000101000000000000 v
b11111111111111111111111111111011 .
b11111111111111111111111111111011 H
b11111111111111111111111111111011 S
b11111111111111111111111111111011 j
b11 (
b11 P
b11 p
b100 )
b100 O
b100 u
b0 N
0*
1-
b1001000110100010100110 t
b1001 :
b1001 K
b11 +
b11 g
b1000 ,
b1000 f
b101 ;
b101 J
b110 0
b110 h
b110111 5
b110111 L
b11000 3
b11000 X
b11000 _
b10010001101000101001100110111 8
b10010001101000101001100110111 U
b11000 2
b11000 \
b11000 ^
b11000 o
b10010001101000101000000010100 1
b10010001101000101000000010100 `
b10010001101000101000000010100 c
b10100 4
b10100 V
b10100 Y
b10100 Z
b10100 b
1!
#120000
0!
#130000
b0 6
b0 R
b0 n
b1010 ?
b1010 B
b1010 F
b11001 @
b11001 E
b11001 Q
b11001 m
b11001 '
b11001 i
b11001 s
b10 9
b10 G
b10 d
b10 q
b10 v
b1010 .
b1010 H
b1010 S
b1010 j
b1111 /
b1111 D
b1111 k
b1 N
b0 (
b0 P
b0 p
b0 )
b0 O
b0 u
1-
b100000100000111 t
b0 :
b0 K
b10 +
b10 g
b1 ,
b1 f
b0 ;
b0 J
b111 0
b111 h
b110011 5
b110011 L
b11100 3
b11100 X
b11100 _
b1000001000001110110011 8
b1000001000001110110011 U
b11100 2
b11100 \
b11100 ^
b11100 o
b11010 1
b11010 `
b11010 c
b11000 4
b11000 V
b11000 Y
b11000 Z
b11000 b
1!
#140000
0!
#150000
b101 '
b101 i
b101 s
b101 @
b101 E
b101 Q
b101 m
b10000000010 9
b10000000010 G
b10000000010 d
b10000000010 q
b10000000010 v
b1 A
b1 C
b1 M
b100000000100000100001000 t
b100000 :
b100000 K
b1000 0
b1000 h
b100000 3
b100000 X
b100000 _
b1000000001000001000010000110011 8
b1000000001000001000010000110011 U
b100000 2
b100000 \
b100000 ^
b100000 o
b10000011110 1
b10000011110 `
b10000011110 c
b11100 4
b11100 V
b11100 Y
b11100 Z
b11100 b
1!
#160000
0!
#170000
b1010 '
b1010 i
b1010 s
b1010 @
b1010 E
b1010 Q
b1010 m
b11111111111111111111111111111011 ?
b11111111111111111111111111111011 B
b11111111111111111111111111111011 F
b11 9
b11 G
b11 d
b11 q
b11 v
b0 A
b0 C
b0 M
b11111111111111111111111111111011 .
b11111111111111111111111111111011 H
b11111111111111111111111111111011 S
b11111111111111111111111111111011 j
b110000100001001 t
b0 :
b0 K
b11 +
b11 g
b1001 0
b1001 h
b100100 3
b100100 X
b100100 _
b1100001000010010110011 8
b1100001000010010110011 U
b100100 2
b100100 \
b100100 ^
b100100 o
b100011 1
b100011 `
b100011 c
b100000 4
b100000 V
b100000 Y
b100000 Z
b100000 b
1!
#180000
0!
#190000
b10100 '
b10100 i
b10100 s
b10100 @
b10100 E
b10100 Q
b10100 m
b10000000011 9
b10000000011 G
b10000000011 d
b10000000011 q
b10000000011 v
b1 A
b1 C
b1 M
b100000000110000100001010 t
b100000 :
b100000 K
b1010 0
b1010 h
b101000 3
b101000 X
b101000 _
b1000000001100001000010100110011 8
b1000000001100001000010100110011 U
b101000 2
b101000 \
b101000 ^
b101000 o
b10000100111 1
b10000100111 `
b10000100111 c
b100100 4
b100100 V
b100100 Y
b100100 Z
b100100 b
1!
#200000
0!
#210000
bx 6
bx R
bx n
b11111111111111111111111111110110 '
b11111111111111111111111111110110 i
b11111111111111111111111111110110 s
b11111111111111111111111111110110 @
b11111111111111111111111111110110 E
b11111111111111111111111111110110 Q
b11111111111111111111111111110110 m
b11 9
b11 G
b11 d
b11 q
b11 v
b0 A
b0 C
b0 M
b11111111111111111111111111111011 /
b11111111111111111111111111111011 D
b11111111111111111111111111111011 k
b110001100001011 t
b0 :
b0 K
b11 ,
b11 f
b1011 0
b1011 h
b101100 3
b101100 X
b101100 _
b1100011000010110110011 8
b1100011000010110110011 U
b101100 2
b101100 \
b101100 ^
b101100 o
b101011 1
b101011 `
b101011 c
b101000 4
b101000 V
b101000 Y
b101000 Z
b101000 b
1!
#220000
0!
#230000
b0 6
b0 R
b0 n
b101 '
b101 i
b101 s
b1010 ?
b1010 B
b1010 F
b101 @
b101 E
b101 Q
b101 m
b10 9
b10 G
b10 d
b10 q
b10 v
b1010 .
b1010 H
b1010 S
b1010 j
b1111 /
b1111 D
b1111 k
b101 A
b101 C
b101 M
b100000110001100 t
b10 +
b10 g
b1 ,
b1 f
b100 ;
b100 J
b1100 0
b1100 h
b110000 3
b110000 X
b110000 _
b1000001100011000110011 8
b1000001100011000110011 U
b110000 2
b110000 \
b110000 ^
b110000 o
b101110 1
b101110 `
b101110 c
b101100 4
b101100 V
b101100 Y
b101100 Z
b101100 b
1!
#240000
0!
#250000
b1111 '
b1111 i
b1111 s
b1111 @
b1111 E
b1111 Q
b1111 m
b1000 A
b1000 C
b1000 M
b100000111001101 t
b110 ;
b110 J
b1101 0
b1101 h
b110100 3
b110100 X
b110100 _
b1000001110011010110011 8
b1000001110011010110011 U
b110100 2
b110100 \
b110100 ^
b110100 o
b110010 1
b110010 `
b110010 c
b110000 4
b110000 V
b110000 Y
b110000 Z
b110000 b
1!
#260000
0!
#270000
b1010 '
b1010 i
b1010 s
b1010 @
b1010 E
b1010 Q
b1010 m
b1001 A
b1001 C
b1001 M
b100000111101110 t
b111 ;
b111 J
b1110 0
b1110 h
b111000 3
b111000 X
b111000 _
b1000001111011100110011 8
b1000001111011100110011 U
b111000 2
b111000 \
b111000 ^
b111000 o
b110110 1
b110110 `
b110110 c
b110100 4
b110100 V
b110100 Y
b110100 Z
b110100 b
1!
#280000
0!
#290000
b10 '
b10 i
b10 s
b10 @
b10 E
b10 Q
b10 m
b10 ?
b10 B
b10 F
b0 /
b0 D
b0 k
b0 A
b0 C
b0 M
1*
b10 N
1-
b100000000001111 t
b0 ,
b0 f
b0 ;
b0 J
b1111 0
b1111 h
b10011 5
b10011 L
b111100 3
b111100 X
b111100 _
b1000000000011110010011 8
b1000000000011110010011 U
b111100 2
b111100 \
b111100 ^
b111100 o
b111010 1
b111010 `
b111010 c
b111000 4
b111000 V
b111000 Y
b111000 Z
b111000 b
1!
#300000
0!
#310000
b101000 '
b101000 i
b101000 s
b101000 @
b101000 E
b101000 Q
b101000 m
b1111 9
b1111 G
b1111 d
b1111 q
b1111 v
b10 .
b10 H
b10 S
b10 j
b1010 /
b1010 D
b1010 k
b10 A
b10 C
b10 M
b1 N
0*
1-
b11110001000110000 t
b1111 +
b1111 g
b10 ,
b10 f
b1 ;
b1 J
b10000 0
b10000 h
b110011 5
b110011 L
b1000000 3
b1000000 X
b1000000 _
b111100010001100000110011 8
b111100010001100000110011 U
b1000000 2
b1000000 \
b1000000 ^
b1000000 o
b1001011 1
b1001011 `
b1001011 c
b111100 4
b111100 V
b111100 Y
b111100 Z
b111100 b
1!
#320000
0!
#330000
b1010 '
b1010 i
b1010 s
b1010 @
b1010 E
b1010 Q
b1010 m
b101000 /
b101000 D
b101000 k
b110 A
b110 C
b110 M
b11111000010110001 t
b10000 ,
b10000 f
b101 ;
b101 J
b10001 0
b10001 h
b1000100 3
b1000100 X
b1000100 _
b111110000101100010110011 8
b111110000101100010110011 U
b1000100 2
b1000100 \
b1000100 ^
b1000100 o
b1001111 1
b1001111 `
b1001111 c
b1000000 4
b1000000 V
b1000000 Y
b1000000 Z
b1000000 b
1!
#340000
0!
#350000
bx 6
bx R
bx n
b11111111111111111111111111111100 '
b11111111111111111111111111111100 i
b11111111111111111111111111111100 s
b1 ?
b1 B
b1 F
b11111111111111111111111111111100 @
b11111111111111111111111111111100 E
b11111111111111111111111111111100 Q
b11111111111111111111111111111100 m
b10000000101 9
b10000000101 G
b10000000101 d
b10000000101 q
b10000000101 v
b111 A
b111 C
b111 M
b1 .
b1 H
b1 S
b1 j
b11111111111111111111111111111000 /
b11111111111111111111111111111000 D
b11111111111111111111111111111000 k
b100000001010010010110010 t
b100000 :
b100000 K
b101 +
b101 g
b100 ,
b100 f
b10010 0
b10010 h
b1001000 3
b1001000 X
b1001000 _
b1000000010100100101100100110011 8
b1000000010100100101100100110011 U
b1001000 2
b1001000 \
b1001000 ^
b1001000 o
b10001001001 1
b10001001001 `
b10001001001 c
b1000100 4
b1000100 V
b1000100 Y
b1000100 Z
b1000100 b
1!
#360000
0!
#370000
b0 6
b0 R
b0 n
b1 '
b1 i
b1 s
b1111 ?
b1111 B
b1111 F
0>
b1 @
b1 E
b1 Q
b1 m
b1 9
b1 G
b1 d
b1 q
b1 v
b1111 .
b1111 H
b1111 S
b1111 j
b1010 /
b1010 D
b1010 k
b11 A
b11 C
b11 M
b10001001010011 t
b0 :
b0 K
b1 +
b1 g
b10 ,
b10 f
b10 ;
b10 J
b10011 0
b10011 h
b1001100 3
b1001100 X
b1001100 _
b100010010100110110011 8
b100010010100110110011 U
b1001100 2
b1001100 \
b1001100 ^
b1001100 o
b1001001 1
b1001001 `
b1001001 c
b1001000 4
b1001000 V
b1001000 Y
b1001000 Z
b1001000 b
1!
#380000
0!
#390000
b0 '
b0 i
b0 s
b1010 ?
b1010 B
b1010 F
1>
b0 @
b0 E
b0 Q
b0 m
b10 9
b10 G
b10 d
b10 q
b10 v
b1010 .
b1010 H
b1010 S
b1010 j
b1111 /
b1111 D
b1111 k
b100000101010100 t
b10 +
b10 g
b1 ,
b1 f
b10100 0
b10100 h
b1010000 3
b1010000 X
b1010000 _
b1000001010101000110011 8
b1000001010101000110011 U
b1010000 2
b1010000 \
b1010000 ^
b1010000 o
b1001110 1
b1001110 `
b1001110 c
b1001100 4
b1001100 V
b1001100 Y
b1001100 Z
b1001100 b
1!
#400000
0!
#410000
b10100 '
b10100 i
b10100 s
0>
b10100 @
b10100 E
b10100 Q
b10100 m
b101 ?
b101 B
b101 F
b101 9
b101 G
b101 d
b101 q
b101 v
b1 .
b1 H
b1 S
b1 j
b0 A
b0 C
b0 M
1*
b10 N
1-
b1010000100010101 t
b101 +
b101 g
b0 ;
b0 J
b10101 0
b10101 h
b10011 5
b10011 L
b1010100 3
b1010100 X
b1010100 _
b10100001000101010010011 8
b10100001000101010010011 U
b1010100 2
b1010100 \
b1010100 ^
b1010100 o
b1010101 1
b1010101 `
b1010101 c
b1010000 4
b1010000 V
b1010000 Y
b1010000 Z
b1010000 b
1!
#420000
0!
#430000
b11111111111111111111111111111101 ?
b11111111111111111111111111111101 B
b11111111111111111111111111111101 F
b111 '
b111 i
b111 s
b111 @
b111 E
b111 Q
b111 m
b11111111111111111111111111111101 9
b11111111111111111111111111111101 G
b11111111111111111111111111111101 d
b11111111111111111111111111111101 q
b11111111111111111111111111111101 v
b0 .
b0 H
b0 S
b0 j
b1010 /
b1010 D
b1010 k
b1111111111010001000010110 t
b1111111 :
b1111111 K
b11101 +
b11101 g
b10 ,
b10 f
b10110 0
b10110 h
b1011000 3
b1011000 X
b1011000 _
b11111111110100010000101100010011 8
b11111111110100010000101100010011 U
b1011000 2
b1011000 \
b1011000 ^
b1011000 o
b1010001 1
b1010001 `
b1010001 c
b1010100 4
b1010100 V
b1010100 Y
b1010100 Z
b1010100 b
1!
#440000
0!
#450000
b10100 ?
b10100 B
b10100 F
b1 '
b1 i
b1 s
0>
b1 @
b1 E
b1 Q
b1 m
b10100 9
b10100 G
b10100 d
b10100 q
b10100 v
b11 A
b11 C
b11 M
b101000001001010111 t
b0 :
b0 K
b10100 +
b10100 g
b10 ;
b10 J
b10111 0
b10111 h
b1011100 3
b1011100 X
b1011100 _
b1010000010010101110010011 8
b1010000010010101110010011 U
b1011100 2
b1011100 \
b1011100 ^
b1011100 o
b1101100 1
b1101100 `
b1101100 c
b1011000 4
b1011000 V
b1011000 Y
b1011000 Z
b1011000 b
1!
#460000
0!
#470000
b0 '
b0 i
b0 s
1>
b0 @
b0 E
b0 Q
b0 m
b1010 ?
b1010 B
b1010 F
b1010 9
b1010 G
b1010 d
b1010 q
b1010 v
b10100 .
b10100 H
b10100 S
b10100 j
b1111 /
b1111 D
b1111 k
b10100000101011000 t
b1010 +
b1010 g
b1 ,
b1 f
b11000 0
b11000 h
b1100000 3
b1100000 X
b1100000 _
b101000001010110000010011 8
b101000001010110000010011 U
b1100000 2
b1100000 \
b1100000 ^
b1100000 o
b1100110 1
b1100110 `
b1100110 c
b1011100 4
b1011100 V
b1011100 Y
b1011100 Z
b1011100 b
1!
#480000
0!
#490000
b101 '
b101 i
b101 s
0>
b101 @
b101 E
b101 Q
b101 m
b101 A
b101 C
b101 M
b10100000110011001 t
b100 ;
b100 J
b11001 0
b11001 h
b1100100 3
b1100100 X
b1100100 _
b101000001100110010010011 8
b101000001100110010010011 U
b1100100 2
b1100100 \
b1100100 ^
b1100100 o
b1101010 1
b1101010 `
b1101010 c
b1100000 4
b1100000 V
b1100000 Y
b1100000 Z
b1100000 b
1!
#500000
0!
#510000
b101 ?
b101 B
b101 F
b1111 '
b1111 i
b1111 s
b1111 @
b1111 E
b1111 Q
b1111 m
b101 9
b101 G
b101 d
b101 q
b101 v
b1 .
b1 H
b1 S
b1 j
b1010 /
b1010 D
b1010 k
b1000 A
b1000 C
b1000 M
b1010001011011010 t
b101 +
b101 g
b10 ,
b10 f
b110 ;
b110 J
b11010 0
b11010 h
b1101000 3
b1101000 X
b1101000 _
b10100010110110100010011 8
b10100010110110100010011 U
b1101000 2
b1101000 \
b1101000 ^
b1101000 o
b1101001 1
b1101001 `
b1101001 c
b1100100 4
b1100100 V
b1100100 Y
b1100100 Z
b1100100 b
1!
#520000
0!
#530000
b1010 ?
b1010 B
b1010 F
b1010 '
b1010 i
b1010 s
b1010 @
b1010 E
b1010 Q
b1010 m
b1010 9
b1010 G
b1010 d
b1010 q
b1010 v
b10100 .
b10100 H
b10100 S
b10100 j
b1111 /
b1111 D
b1111 k
b1001 A
b1001 C
b1001 M
b10100000111111011 t
b1010 +
b1010 g
b1 ,
b1 f
b111 ;
b111 J
b11011 0
b11011 h
b1101100 3
b1101100 X
b1101100 _
b101000001111110110010011 8
b101000001111110110010011 U
b1101100 2
b1101100 \
b1101100 ^
b1101100 o
b1110010 1
b1110010 `
b1110010 c
b1101000 4
b1101000 V
b1101000 Y
b1101000 Z
b1101000 b
1!
#540000
0!
#550000
b0 6
b0 R
b0 n
b10 ?
b10 B
b10 F
b101000 '
b101000 i
b101000 s
b101000 @
b101000 E
b101000 Q
b101000 m
b10 9
b10 G
b10 d
b10 q
b10 v
b1010 .
b1010 H
b1010 S
b1010 j
b1010 /
b1010 D
b1010 k
b10 A
b10 C
b10 M
b100001000111100 t
b10 +
b10 g
b10 ,
b10 f
b1 ;
b1 J
b11100 0
b11100 h
b1110000 3
b1110000 X
b1110000 _
b1000010001111000010011 8
b1000010001111000010011 U
b1110000 2
b1110000 \
b1110000 ^
b1110000 o
b1101110 1
b1101110 `
b1101110 c
b1101100 4
b1101100 V
b1101100 Y
b1101100 Z
b1101100 b
1!
#560000
0!
#570000
b1 ?
b1 B
b1 F
b10100 '
b10100 i
b10100 s
b10100 @
b10100 E
b10100 Q
b10100 m
b1 9
b1 G
b1 d
b1 q
b1 v
b1111 .
b1111 H
b1111 S
b1111 j
b101000 /
b101000 D
b101000 k
b110 A
b110 C
b110 M
b11110010111101 t
b1 +
b1 g
b11100 ,
b11100 f
b101 ;
b101 J
b11101 0
b11101 h
b1110100 3
b1110100 X
b1110100 _
b111100101111010010011 8
b111100101111010010011 U
b1110100 2
b1110100 \
b1110100 ^
b1110100 o
b1110001 1
b1110001 `
b1110001 c
b1110000 4
b1110000 V
b1110000 Y
b1110000 Z
b1110000 b
1!
#580000
0!
#590000
bx 6
bx R
bx n
b10000000001 ?
b10000000001 B
b10000000001 F
b11111111111111111111111111111101 '
b11111111111111111111111111111101 i
b11111111111111111111111111111101 s
b11111111111111111111111111111101 @
b11111111111111111111111111111101 E
b11111111111111111111111111111101 Q
b11111111111111111111111111111101 m
b10000000001 9
b10000000001 G
b10000000001 d
b10000000001 q
b10000000001 v
b111 A
b111 C
b111 M
b11111111111111111111111111111011 /
b11111111111111111111111111111011 D
b11111111111111111111111111111011 k
b100000000010001110111110 t
b100000 :
b100000 K
b11 ,
b11 f
b11110 0
b11110 h
b1111000 3
b1111000 X
b1111000 _
b1000000000100011101111100010011 8
b1000000000100011101111100010011 U
b1111000 2
b1111000 \
b1111000 ^
b1111000 o
b10001110101 1
b10001110101 `
b10001110101 c
b1110100 4
b1110100 V
b1110100 Y
b1110100 Z
b1110100 b
1!
#600000
0!
#610000
b0 6
b0 R
b0 n
b0 '
b0 i
b0 s
1>
b0 @
b0 E
b0 Q
b0 m
b0 ?
b0 B
b0 F
b0 9
b0 G
b0 d
b0 q
b0 v
b11001 .
b11001 H
b11001 S
b11001 j
b0 /
b0 D
b0 k
b0 A
b0 C
b0 M
1<
b1 )
b1 O
b1 u
b0 N
1*
0-
b1110000001000000 t
b0 :
b0 K
b111 +
b111 g
b0 ,
b0 f
b10 ;
b10 J
b0 0
b0 h
b100011 5
b100011 L
b1111100 3
b1111100 X
b1111100 _
b11100000010000000100011 8
b11100000010000000100011 U
b1111100 2
b1111100 \
b1111100 ^
b1111100 o
b1111000 1
b1111000 `
b1111000 c
b1111000 4
b1111000 V
b1111000 Y
b1111000 Z
b1111000 b
1!
#620000
0!
#630000
b100 '
b100 i
b100 s
0>
b100 @
b100 E
b100 Q
b100 m
b100 ?
b100 B
b100 F
b100 9
b100 G
b100 d
b100 q
b100 v
b101 .
b101 H
b101 S
b101 j
b10000000001000100 t
b1000 +
b1000 g
b100 0
b100 h
b10000000 3
b10000000 X
b10000000 _
b100000000010001000100011 8
b100000000010001000100011 U
b0 6
b0 R
b0 n
b10000000 2
b10000000 \
b10000000 ^
b10000000 o
b10000000 1
b10000000 `
b10000000 c
b1111100 4
b1111100 V
b1111100 Y
b1111100 Z
b1111100 b
1!
#640000
0!
#650000
b1000 '
b1000 i
b1000 s
b1000 @
b1000 E
b1000 Q
b1000 m
b1000 ?
b1000 B
b1000 F
b1000 9
b1000 G
b1000 d
b1000 q
b1000 v
b1010 .
b1010 H
b1010 S
b1010 j
b10010000001001000 t
b1001 +
b1001 g
b1000 0
b1000 h
b10000100 3
b10000100 X
b10000100 _
b100100000010010000100011 8
b100100000010010000100011 U
b0 6
b0 R
b0 n
b10000100 2
b10000100 \
b10000100 ^
b10000100 o
b10001000 1
b10001000 `
b10001000 c
b10000000 4
b10000000 V
b10000000 Y
b10000000 Z
b10000000 b
1!
#660000
0!
#670000
b1100 '
b1100 i
b1100 s
b1100 @
b1100 E
b1100 Q
b1100 m
b1100 ?
b1100 B
b1100 F
b1100 9
b1100 G
b1100 d
b1100 q
b1100 v
b10100 .
b10100 H
b10100 S
b10100 j
b10100000001001100 t
b1010 +
b1010 g
b1100 0
b1100 h
b10001000 3
b10001000 X
b10001000 _
b101000000010011000100011 8
b101000000010011000100011 U
b0 6
b0 R
b0 n
b10001000 2
b10001000 \
b10001000 ^
b10001000 o
b10010000 1
b10010000 `
b10010000 c
b10000100 4
b10000100 V
b10000100 Y
b10000100 Z
b10000100 b
1!
#680000
0!
#690000
1>
b0 @
b0 E
b0 Q
b0 m
b11001 '
b11001 i
b11001 s
b0 ?
b0 B
b0 F
b0 9
b0 G
b0 d
b0 q
b0 v
b0 .
b0 H
b0 S
b0 j
b1 (
b1 P
b1 p
1-
0<
1*
b0 )
b0 O
b0 u
b1011111 t
b0 +
b0 g
b11111 0
b11111 h
b11 5
b11 L
b10001100 3
b10001100 X
b10001100 _
b10111110000011 8
b10111110000011 U
b11001 6
b11001 R
b11001 n
b10001100 2
b10001100 \
b10001100 ^
b10001100 o
b10001000 1
b10001000 `
b10001000 c
b10001000 4
b10001000 V
b10001000 Y
b10001000 Z
b10001000 b
1!
#700000
0!
#710000
1&
b0 '
b0 i
b0 s
b1100 9
b1100 G
b1100 d
b1100 q
b1100 v
b1 N
1=
b10 )
b10 O
b10 u
b0 (
b0 P
b0 p
0*
0-
b1100 t
b0 ;
b0 J
b1100 0
b1100 h
b1100011 5
b1100011 L
b10011000 3
b10011000 X
b10011000 _
b11001100011 8
b11001100011 U
b10010000 2
b10010000 \
b10010000 ^
b10010000 o
b10011000 1
b10011000 `
b10011000 c
b10001100 4
b10001100 V
b10001100 Y
b10001100 Z
b10001100 b
1!
#720000
0!
