dump.vcd
$date
	Thu Jan  1 13:20:06 2026
$end
$version
	Icarus Verilog
$end
$timescale
	1ps
$end
$scope module testbench $end
$var reg 1 ! clk $end
$var reg 1 " rst_n $end
$var integer 32 # failed_tests [31:0] $end
$var integer 32 $ passed_tests [31:0] $end
$var integer 32 % total_tests [31:0] $end
$scope module dut $end
$var wire 32 & E_dm_wd [31:0] $end
$var wire 1 ! clk $end
$var wire 1 ' pc_src $end
$var wire 1 ( rst $end
$var wire 1 " rst_n $end
$var wire 32 ) pc_next [31:0] $end
$var wire 1 * W_we_rf $end
$var wire 2 + W_sel_result [1:0] $end
$var wire 5 , W_rf_a3 [4:0] $end
$var wire 32 - W_result [31:0] $end
$var wire 32 . W_pc_p4 [31:0] $end
$var wire 32 / W_ext [31:0] $end
$var wire 32 0 W_dm_rd [31:0] $end
$var wire 32 1 W_alu_o [31:0] $end
$var wire 1 2 PLR2_clr $end
$var wire 1 3 PLR1_en $end
$var wire 1 4 PLR1_clr $end
$var wire 1 5 PC_en $end
$var wire 1 6 M_we_rf $end
$var wire 1 7 M_we_dm $end
$var wire 2 8 M_sel_result [1:0] $end
$var wire 5 9 M_rf_a3 [4:0] $end
$var wire 32 : M_pc_p4 [31:0] $end
$var wire 32 ; M_ext [31:0] $end
$var wire 32 < M_dm_wd [31:0] $end
$var wire 32 = M_dm_rd [31:0] $end
$var wire 32 > M_alu_o [31:0] $end
$var wire 32 ? F_pc_p4 [31:0] $end
$var wire 32 @ F_pc [31:0] $end
$var wire 32 A F_instr [31:0] $end
$var wire 1 B E_zero $end
$var wire 1 C E_we_rf $end
$var wire 1 D E_we_dm $end
$var wire 32 E E_target_pc [31:0] $end
$var wire 2 F E_sel_result [1:0] $end
$var wire 1 G E_sel_alu_src_b $end
$var wire 32 H E_rf_rd2 [31:0] $end
$var wire 32 I E_rf_rd1 [31:0] $end
$var wire 5 J E_rf_a3 [4:0] $end
$var wire 5 K E_rf_a2 [4:0] $end
$var wire 5 L E_rf_a1 [4:0] $end
$var wire 32 M E_pc_p4 [31:0] $end
$var wire 32 N E_pc [31:0] $end
$var wire 7 O E_opcode [6:0] $end
$var wire 1 P E_jump $end
$var wire 2 Q E_forward_alu_op2 [1:0] $end
$var wire 2 R E_forward_alu_op1 [1:0] $end
$var wire 32 S E_ext [31:0] $end
$var wire 1 T E_branch $end
$var wire 32 U E_alu_src_b_temp [31:0] $end
$var wire 32 V E_alu_src_b_forwarded [31:0] $end
$var wire 32 W E_alu_src_a [31:0] $end
$var wire 32 X E_alu_o [31:0] $end
$var wire 4 Y E_alu_control [3:0] $end
$var wire 1 Z D_we_rf $end
$var wire 1 [ D_we_dm $end
$var wire 2 \ D_sel_result [1:0] $end
$var wire 3 ] D_sel_ext [2:0] $end
$var wire 1 ^ D_sel_alu_src_b $end
$var wire 32 _ D_rf_rd2 [31:0] $end
$var wire 32 ` D_rf_rd1 [31:0] $end
$var wire 5 a D_rf_a3 [4:0] $end
$var wire 5 b D_rf_a2 [4:0] $end
$var wire 5 c D_rf_a1 [4:0] $end
$var wire 32 d D_pc_p4 [31:0] $end
$var wire 32 e D_pc [31:0] $end
$var wire 7 f D_opcode [6:0] $end
$var wire 1 g D_jump $end
$var wire 32 h D_instr [31:0] $end
$var wire 7 i D_funct7 [6:0] $end
$var wire 3 j D_funct3 [2:0] $end
$var wire 32 k D_ext [31:0] $end
$var wire 1 l D_branch $end
$var wire 4 m D_alu_control [3:0] $end
$scope module ALU $end
$var wire 1 B zero $end
$var wire 32 n b [31:0] $end
$var wire 4 o alu_control [3:0] $end
$var wire 32 p a [31:0] $end
$var reg 32 q result [31:0] $end
$upscope $end
$scope module ALU_SRC_B_MUX $end
$var wire 32 r y [31:0] $end
$var wire 1 G sel $end
$var wire 32 s d1 [31:0] $end
$var wire 32 t d0 [31:0] $end
$var parameter 32 u WIDTH $end
$upscope $end
$scope module BRANCH_TARGET_ADDER $end
$var wire 32 v sum [31:0] $end
$var wire 32 w b [31:0] $end
$var wire 32 x a [31:0] $end
$var parameter 32 y WIDTH $end
$upscope $end
$scope module CONTROLLER $end
$var wire 3 z funct3 [2:0] $end
$var wire 7 { funct7 [6:0] $end
$var wire 7 | opcode [6:0] $end
$var reg 4 } alu_control [3:0] $end
$var reg 2 ~ alu_op [1:0] $end
$var reg 1 l branch $end
$var reg 1 [ dmem_we $end
$var reg 1 g jump $end
$var reg 1 Z rf_we $end
$var reg 1 ^ sel_alu_src_b $end
$var reg 3 !" sel_ext [2:0] $end
$var reg 2 "" sel_result [1:0] $end
$upscope $end
$scope module DMEM $end
$var wire 1 ! clk $end
$var wire 32 #" rd [31:0] $end
$var wire 1 7 we $end
$var wire 32 $" wd [31:0] $end
$var wire 32 %" addr [31:0] $end
$var integer 32 &" i [31:0] $end
$upscope $end
$scope module FORWARD_MUX_A $end
$var wire 2 '" sel [1:0] $end
$var wire 32 (" d2 [31:0] $end
$var wire 32 )" d1 [31:0] $end
$var wire 32 *" d0 [31:0] $end
$var parameter 32 +" WIDTH $end
$var reg 32 ," y [31:0] $end
$upscope $end
$scope module FORWARD_MUX_B $end
$var wire 2 -" sel [1:0] $end
$var wire 32 ." d2 [31:0] $end
$var wire 32 /" d1 [31:0] $end
$var wire 32 0" d0 [31:0] $end
$var parameter 32 1" WIDTH $end
$var reg 32 2" y [31:0] $end
$upscope $end
$scope module HAZARD_UNIT $end
$var wire 5 3" D_rf_a1 [4:0] $end
$var wire 5 4" D_rf_a2 [4:0] $end
$var wire 1 B E_zero $end
$var wire 1 * W_we_rf $end
$var wire 5 5" W_rf_a3 [4:0] $end
$var wire 1 6 M_we_rf $end
$var wire 5 6" M_rf_a3 [4:0] $end
$var wire 1 C E_we_rf $end
$var wire 5 7" E_rf_a3 [4:0] $end
$var wire 5 8" E_rf_a2 [4:0] $end
$var wire 5 9" E_rf_a1 [4:0] $end
$var wire 7 :" E_opcode [6:0] $end
$var wire 1 P E_jump $end
$var wire 1 T E_branch $end
$var parameter 7 ;" OP_LW $end
$var reg 2 <" E_forward_alu_op1 [1:0] $end
$var reg 2 =" E_forward_alu_op2 [1:0] $end
$var reg 1 5 PC_en $end
$var reg 1 4 PLR1_clr $end
$var reg 1 3 PLR1_en $end
$var reg 1 2 PLR2_clr $end
$upscope $end
$scope module IMEM $end
$var wire 32 >" rd [31:0] $end
$var wire 32 ?" addr [31:0] $end
$var integer 32 @" i [31:0] $end
$upscope $end
$scope module PC $end
$var wire 1 ! clk $end
$var wire 1 5 en $end
$var wire 1 ( rst $end
$var wire 32 A" pc_next [31:0] $end
$var reg 32 B" pc_current [31:0] $end
$upscope $end
$scope module PC_PLUS_4 $end
$var wire 32 C" a [31:0] $end
$var wire 32 D" b [31:0] $end
$var wire 32 E" sum [31:0] $end
$var parameter 32 F" WIDTH $end
$upscope $end
$scope module PC_SRC_MUX $end
$var wire 32 G" d0 [31:0] $end
$var wire 32 H" d1 [31:0] $end
$var wire 1 ' sel $end
$var wire 32 I" y [31:0] $end
$var parameter 32 J" WIDTH $end
$upscope $end
$scope module PLR1 $end
$var wire 32 K" F_instr [31:0] $end
$var wire 32 L" F_pc [31:0] $end
$var wire 32 M" F_pc_p4 [31:0] $end
$var wire 1 ! clk $end
$var wire 1 4 clr $end
$var wire 1 3 en $end
$var wire 1 ( rst $end
$var reg 32 N" D_instr [31:0] $end
$var reg 32 O" D_pc [31:0] $end
$var reg 32 P" D_pc_p4 [31:0] $end
$upscope $end
$scope module PLR2 $end
$var wire 4 Q" D_alu_control [3:0] $end
$var wire 1 l D_branch $end
$var wire 1 g D_jump $end
$var wire 7 R" D_opcode [6:0] $end
$var wire 32 S" D_pc [31:0] $end
$var wire 32 T" D_pc_p4 [31:0] $end
$var wire 5 U" D_rf_a1 [4:0] $end
$var wire 5 V" D_rf_a2 [4:0] $end
$var wire 5 W" D_rf_a3 [4:0] $end
$var wire 1 ^ D_sel_alu_src_b $end
$var wire 2 X" D_sel_result [1:0] $end
$var wire 1 [ D_we_dm $end
$var wire 1 Z D_we_rf $end
$var wire 1 ! clk $end
$var wire 1 2 clr $end
$var wire 1 ( rst $end
$var wire 32 Y" D_rf_rd2 [31:0] $end
$var wire 32 Z" D_rf_rd1 [31:0] $end
$var wire 32 [" D_ext [31:0] $end
$var reg 4 \" E_alu_control [3:0] $end
$var reg 1 T E_branch $end
$var reg 32 ]" E_ext [31:0] $end
$var reg 1 P E_jump $end
$var reg 7 ^" E_opcode [6:0] $end
$var reg 32 _" E_pc [31:0] $end
$var reg 32 `" E_pc_p4 [31:0] $end
$var reg 5 a" E_rf_a1 [4:0] $end
$var reg 5 b" E_rf_a2 [4:0] $end
$var reg 5 c" E_rf_a3 [4:0] $end
$var reg 32 d" E_rf_rd1 [31:0] $end
$var reg 32 e" E_rf_rd2 [31:0] $end
$var reg 1 G E_sel_alu_src_b $end
$var reg 2 f" E_sel_result [1:0] $end
$var reg 1 D E_we_dm $end
$var reg 1 C E_we_rf $end
$upscope $end
$scope module PLR3 $end
$var wire 32 g" E_alu_o [31:0] $end
$var wire 32 h" E_dm_wd [31:0] $end
$var wire 32 i" E_ext [31:0] $end
$var wire 32 j" E_pc_p4 [31:0] $end
$var wire 5 k" E_rf_a3 [4:0] $end
$var wire 2 l" E_sel_result [1:0] $end
$var wire 1 D E_we_dm $end
$var wire 1 C E_we_rf $end
$var wire 1 ! clk $end
$var wire 1 ( rst $end
$var reg 32 m" M_alu_o [31:0] $end
$var reg 32 n" M_dm_wd [31:0] $end
$var reg 32 o" M_ext [31:0] $end
$var reg 32 p" M_pc_p4 [31:0] $end
$var reg 5 q" M_rf_a3 [4:0] $end
$var reg 2 r" M_sel_result [1:0] $end
$var reg 1 7 M_we_dm $end
$var reg 1 6 M_we_rf $end
$upscope $end
$scope module PLR4 $end
$var wire 32 s" M_alu_o [31:0] $end
$var wire 32 t" M_dm_rd [31:0] $end
$var wire 32 u" M_ext [31:0] $end
$var wire 32 v" M_pc_p4 [31:0] $end
$var wire 5 w" M_rf_a3 [4:0] $end
$var wire 2 x" M_sel_result [1:0] $end
$var wire 1 6 M_we_rf $end
$var wire 1 ! clk $end
$var wire 1 ( rst $end
$var reg 32 y" W_alu_o [31:0] $end
$var reg 32 z" W_dm_rd [31:0] $end
$var reg 32 {" W_ext [31:0] $end
$var reg 32 |" W_pc_p4 [31:0] $end
$var reg 5 }" W_rf_a3 [4:0] $end
$var reg 2 ~" W_sel_result [1:0] $end
$var reg 1 * W_we_rf $end
$upscope $end
$scope module RESULT_MUX $end
$var wire 32 !# d0 [31:0] $end
$var wire 32 "# d1 [31:0] $end
$var wire 32 ## d2 [31:0] $end
$var wire 32 $# d3 [31:0] $end
$var wire 2 %# sel [1:0] $end
$var parameter 32 &# WIDTH $end
$var reg 32 '# y [31:0] $end
$upscope $end
$scope module RF $end
$var wire 5 (# a1 [4:0] $end
$var wire 5 )# a2 [4:0] $end
$var wire 5 *# a3 [4:0] $end
$var wire 1 ! clk $end
$var wire 1 ( rst $end
$var wire 32 +# wd [31:0] $end
$var wire 1 * we $end
$var wire 32 ,# rd2 [31:0] $end
$var wire 32 -# rd1 [31:0] $end
$var integer 32 .# i [31:0] $end
$upscope $end
$scope module SIGN_EXT $end
$var wire 25 /# instr [31:7] $end
$var wire 3 0# sel_ext [2:0] $end
$var reg 32 1# imm_ext [31:0] $end
$upscope $end
$upscope $end
$scope task check_memory $end
$var reg 32 2# addr [31:0] $end
$var reg 32 3# expected [31:0] $end
$var reg 1601 4# test_name [1600:0] $end
$upscope $end
$scope task check_register $end
$var reg 32 5# expected [31:0] $end
$var reg 5 6# reg_num [4:0] $end
$var reg 1601 7# test_name [1600:0] $end
$upscope $end
$upscope $end
$scope module testbench $end
$scope module dut $end
$scope module ALU $end
$upscope $end
$scope module ALU_SRC_B_MUX $end
$upscope $end
$scope module BRANCH_TARGET_ADDER $end
$upscope $end
$scope module CONTROLLER $end
$upscope $end
$scope module DMEM $end
$upscope $end
$scope module FORWARD_MUX_A $end
$upscope $end
$scope module FORWARD_MUX_B $end
$upscope $end
$scope module HAZARD_UNIT $end
$upscope $end
$scope module IMEM $end
$upscope $end
$scope module PC $end
$upscope $end
$scope module PC_PLUS_4 $end
$upscope $end
$scope module PC_SRC_MUX $end
$upscope $end
$scope module PLR1 $end
$upscope $end
$scope module PLR2 $end
$upscope $end
$scope module PLR3 $end
$upscope $end
$scope module PLR4 $end
$upscope $end
$scope module RESULT_MUX $end
$upscope $end
$scope module RF $end
$upscope $end
$scope module SIGN_EXT $end
$upscope $end
$upscope $end
$scope task check_memory $end
$upscope $end
$scope task check_register $end
$upscope $end
$upscope $end
$enddefinitions $end
$comment Show the parameter values. $end
$dumpall
b100000 &#
b100000 J"
b100000 F"
b11 ;"
b100000 1"
b100000 +"
b100000 y
b100000 u
$end
#0
$dumpvars
bx 7#
bx 6#
bx 5#
bx 4#
bx 3#
bx 2#
b0 1#
b0 0#
b0 /#
b100000 .#
b0 -#
b0 ,#
b0 +#
b0 *#
b0 )#
b0 (#
b0 '#
b0 %#
b0 $#
b0 ##
b0 "#
b0 !#
b0 ~"
b0 }"
b0 |"
b0 {"
b0 z"
b0 y"
b0 x"
b0 w"
b0 v"
b0 u"
b0 t"
b0 s"
b0 r"
b0 q"
b0 p"
b0 o"
b0 n"
b0 m"
b0 l"
b0 k"
b0 j"
b0 i"
b0 h"
b0 g"
b0 f"
b0 e"
b0 d"
b0 c"
b0 b"
b0 a"
b0 `"
b0 _"
b0 ^"
b0 ]"
b0 \"
b0 ["
b0 Z"
b0 Y"
b0 X"
b0 W"
b0 V"
b0 U"
b0 T"
b0 S"
b0 R"
b0 Q"
b0 P"
b0 O"
b0 N"
b100 M"
b0 L"
b111100000000000010010011 K"
b100 I"
b0 H"
b100 G"
b100 E"
b100 D"
b0 C"
b0 B"
b100 A"
b10000000000 @"
b0 ?"
b111100000000000010010011 >"
b0 ="
b0 <"
b0 :"
b0 9"
b0 8"
b0 7"
b0 6"
b0 5"
b0 4"
b0 3"
b0 2"
b0 0"
b0 /"
b0 ."
b0 -"
b0 ,"
b0 *"
b0 )"
b0 ("
b0 '"
b10000000000 &"
b0 %"
b0 $"
b0 #"
b0 ""
b0 !"
b0 ~
b0 }
b0 |
b0 {
b0 z
b0 x
b0 w
b0 v
b0 t
b0 s
b0 r
b0 q
b0 p
b0 o
b0 n
b0 m
0l
b0 k
b0 j
b0 i
b0 h
0g
b0 f
b0 e
b0 d
b0 c
b0 b
b0 a
b0 `
b0 _
0^
b0 ]
b0 \
0[
0Z
b0 Y
b0 X
b0 W
b0 V
b0 U
0T
b0 S
b0 R
b0 Q
0P
b0 O
b0 N
b0 M
b0 L
b0 K
b0 J
b0 I
b0 H
0G
b0 F
b0 E
0D
0C
1B
b111100000000000010010011 A
b0 @
b100 ?
b0 >
b0 =
b0 <
b0 ;
b0 :
b0 9
b0 8
07
06
15
04
13
02
b0 1
b0 0
b0 /
b0 .
b0 -
b0 ,
b0 +
0*
b100 )
1(
0'
b0 &
b0 %
b0 $
b0 #
0"
0!
$end
#10000
1!
#15000
0(
1"
#20000
0!
#30000
b1111 k
b1111 ["
b1111 1#
b10 ~
1^
1Z
b1000 )
b1000 A"
b1000 I"
b101000000000000100010011 A
b101000000000000100010011 >"
b101000000000000100010011 K"
b11110000000000001 /#
b1 a
b1 W"
b1111 b
b1111 4"
b1111 V"
b1111 )#
b10011 f
b10011 |
b10011 R"
b1000 ?
b1000 E"
b1000 G"
b1000 M"
b100 @
b100 ?"
b100 B"
b100 C"
b100 L"
b100 d
b100 P"
b100 T"
b111100000000000010010011 h
b111100000000000010010011 N"
1!
#40000
0!
#50000
0B
b1111 X
b1111 q
b1111 g"
b1010 k
b1010 ["
b1010 1#
b1111 V
b1111 n
b1111 r
b10100000000000010 /#
b10 a
b10 W"
b1010 b
b1010 4"
b1010 V"
b1010 )#
b1100 )
b1100 A"
b1100 I"
b11111111101100000000000110010011 A
b11111111101100000000000110010011 >"
b11111111101100000000000110010011 K"
1G
1C
b10011 O
b10011 :"
b10011 ^"
b1 J
b1 7"
b1 c"
b1 k"
b1111 K
b1111 8"
b1111 b"
b1111 E
b1111 v
b1111 H"
b1111 S
b1111 s
b1111 w
b1111 ]"
b1111 i"
b100 M
b100 `"
b100 j"
b1000 d
b1000 P"
b1000 T"
b100 e
b100 O"
b100 S"
b101000000000000100010011 h
b101000000000000100010011 N"
b1100 ?
b1100 E"
b1100 G"
b1100 M"
b1000 @
b1000 ?"
b1000 B"
b1000 C"
b1000 L"
1!
#60000
0!
#70000
b11111111111111111111111111111011 k
b11111111111111111111111111111011 ["
b11111111111111111111111111111011 1#
b1010 X
b1010 q
b1010 g"
b10000 )
b10000 A"
b10000 I"
b11111111100000000000001000010011 A
b11111111100000000000001000010011 >"
b11111111100000000000001000010011 K"
b1111111110110000000000011 /#
b1111111 i
b1111111 {
b11 a
b11 W"
b11011 b
b11011 4"
b11011 V"
b11011 )#
b1010 V
b1010 n
b1010 r
b10000 ?
b10000 E"
b10000 G"
b10000 M"
b1100 @
b1100 ?"
b1100 B"
b1100 C"
b1100 L"
b1100 d
b1100 P"
b1100 T"
b1000 e
b1000 O"
b1000 S"
b11111111101100000000000110010011 h
b11111111101100000000000110010011 N"
b10 J
b10 7"
b10 c"
b10 k"
b1010 K
b1010 8"
b1010 b"
b1010 S
b1010 s
b1010 w
b1010 ]"
b1010 i"
b1000 M
b1000 `"
b1000 j"
b1110 E
b1110 v
b1110 H"
b100 N
b100 x
b100 _"
16
b100 :
b100 p"
b100 v"
b1 9
b1 6"
b1 q"
b1 w"
b1111 ;
b1111 o"
b1111 u"
b1111 >
b1111 %"
b1111 )"
b1111 /"
b1111 m"
b1111 s"
1!
#80000
0!
#90000
b11111111111111111111111111111011 X
b11111111111111111111111111111011 q
b11111111111111111111111111111011 g"
b11111111111111111111111111111000 k
b11111111111111111111111111111000 ["
b11111111111111111111111111111000 1#
b1111 -
b1111 '#
b1111 +#
b11111111111111111111111111111011 V
b11111111111111111111111111111011 n
b11111111111111111111111111111011 r
b1111111110000000000000100 /#
b100 a
b100 W"
b11000 b
b11000 4"
b11000 V"
b11000 )#
b10100 )
b10100 A"
b10100 I"
b100000000001010010011 A
b100000000001010010011 >"
b100000000001010010011 K"
1*
b100 .
b100 |"
b100 ##
b1 ,
b1 5"
b1 }"
b1 *#
b1111 /
b1111 {"
b1111 $#
b1111 1
b1111 ("
b1111 ."
b1111 y"
b1111 !#
b1000 :
b1000 p"
b1000 v"
b10 9
b10 6"
b10 q"
b10 w"
b1010 ;
b1010 o"
b1010 u"
b1010 >
b1010 %"
b1010 )"
b1010 /"
b1010 m"
b1010 s"
b11 J
b11 7"
b11 c"
b11 k"
b11011 K
b11011 8"
b11011 b"
b11111111111111111111111111111011 S
b11111111111111111111111111111011 s
b11111111111111111111111111111011 w
b11111111111111111111111111111011 ]"
b11111111111111111111111111111011 i"
b1100 M
b1100 `"
b1100 j"
b11 E
b11 v
b11 H"
b1000 N
b1000 x
b1000 _"
b10000 d
b10000 P"
b10000 T"
b1100 e
b1100 O"
b1100 S"
b11111111100000000000001000010011 h
b11111111100000000000001000010011 N"
b10100 ?
b10100 E"
b10100 G"
b10100 M"
b10000 @
b10000 ?"
b10000 B"
b10000 C"
b10000 L"
1!
#100000
0!
#110000
b1 k
b1 ["
b1 1#
b1111 _
b1111 Y"
b1111 ,#
b11111111111111111111111111111000 X
b11111111111111111111111111111000 q
b11111111111111111111111111111000 g"
b11000 )
b11000 A"
b11000 I"
b10010001101000101001100110111 A
b10010001101000101001100110111 >"
b10010001101000101001100110111 K"
b10000000000101 /#
b0 i
b0 {
b101 a
b101 W"
b1 b
b1 4"
b1 V"
b1 )#
b11111111111111111111111111111000 V
b11111111111111111111111111111000 n
b11111111111111111111111111111000 r
bx =
bx #"
bx t"
b1010 -
b1010 '#
b1010 +#
b11000 ?
b11000 E"
b11000 G"
b11000 M"
b10100 @
b10100 ?"
b10100 B"
b10100 C"
b10100 L"
b10100 d
b10100 P"
b10100 T"
b10000 e
b10000 O"
b10000 S"
b100000000001010010011 h
b100000000001010010011 N"
b100 J
b100 7"
b100 c"
b100 k"
b11000 K
b11000 8"
b11000 b"
b11111111111111111111111111111000 S
b11111111111111111111111111111000 s
b11111111111111111111111111111000 w
b11111111111111111111111111111000 ]"
b11111111111111111111111111111000 i"
b10000 M
b10000 `"
b10000 j"
b100 E
b100 v
b100 H"
b1100 N
b1100 x
b1100 _"
b1100 :
b1100 p"
b1100 v"
b11 9
b11 6"
b11 q"
b11 w"
b11111111111111111111111111111011 ;
b11111111111111111111111111111011 o"
b11111111111111111111111111111011 u"
b11111111111111111111111111111011 >
b11111111111111111111111111111011 %"
b11111111111111111111111111111011 )"
b11111111111111111111111111111011 /"
b11111111111111111111111111111011 m"
b11111111111111111111111111111011 s"
b1000 .
b1000 |"
b1000 ##
b10 ,
b10 5"
b10 }"
b10 *#
b1010 /
b1010 {"
b1010 $#
b1010 1
b1010 ("
b1010 ."
b1010 y"
b1010 !#
1!
#120000
0!
#130000
b1 X
b1 q
b1 g"
b10010001101000101000000000000 k
b10010001101000101000000000000 ["
b10010001101000101000000000000 1#
b0 _
b0 Y"
b0 ,#
b11 \
b11 ""
b11 X"
b100 ]
b100 !"
b100 0#
b0 ~
0^
1Z
b11111111111111111111111111111011 -
b11111111111111111111111111111011 '#
b11111111111111111111111111111011 +#
b1111 &
b1111 h"
b1111 U
b1111 t
b1111 2"
b1 V
b1 n
b1 r
b1001000110100010100110 /#
b1001 i
b1001 {
b101 j
b101 z
b110 a
b110 W"
b11 b
b11 4"
b11 V"
b11 )#
b1000 c
b1000 3"
b1000 U"
b1000 (#
b110111 f
b110111 |
b110111 R"
b11100 )
b11100 A"
b11100 I"
b1000001000001110110011 A
b1000001000001110110011 >"
b1000001000001110110011 K"
b1100 .
b1100 |"
b1100 ##
b11 ,
b11 5"
b11 }"
b11 *#
b11111111111111111111111111111011 /
b11111111111111111111111111111011 {"
b11111111111111111111111111111011 $#
bx 0
bx z"
bx "#
b11111111111111111111111111111011 1
b11111111111111111111111111111011 ("
b11111111111111111111111111111011 ."
b11111111111111111111111111111011 y"
b11111111111111111111111111111011 !#
b10000 :
b10000 p"
b10000 v"
b100 9
b100 6"
b100 q"
b100 w"
b11111111111111111111111111111000 ;
b11111111111111111111111111111000 o"
b11111111111111111111111111111000 u"
b11111111111111111111111111111000 >
b11111111111111111111111111111000 %"
b11111111111111111111111111111000 )"
b11111111111111111111111111111000 /"
b11111111111111111111111111111000 m"
b11111111111111111111111111111000 s"
b101 J
b101 7"
b101 c"
b101 k"
b1 K
b1 8"
b1 b"
b1111 H
b1111 0"
b1111 e"
b1 S
b1 s
b1 w
b1 ]"
b1 i"
b10100 M
b10100 `"
b10100 j"
b10001 E
b10001 v
b10001 H"
b10000 N
b10000 x
b10000 _"
b11000 d
b11000 P"
b11000 T"
b10100 e
b10100 O"
b10100 S"
b10010001101000101001100110111 h
b10010001101000101001100110111 N"
b11100 ?
b11100 E"
b11100 G"
b11100 M"
b11000 @
b11000 ?"
b11000 B"
b11000 C"
b11000 L"
1!
#140000
b11111111111111111111111111111011 _
b11111111111111111111111111111011 Y"
b11111111111111111111111111111011 ,#
0!
#150000
b10 k
b10 ["
b10 1#
b1010 _
b1010 Y"
b1010 ,#
b1111 `
b1111 Z"
b1111 -#
b1 ~
b0 \
b0 ""
b0 X"
b0 ]
b0 !"
b0 0#
1Z
b11111111111111111111111111111011 X
b11111111111111111111111111111011 q
b11111111111111111111111111111011 g"
b100000 )
b100000 A"
b100000 I"
b1000000001000001000010000110011 A
b1000000001000001000010000110011 >"
b1000000001000001000010000110011 K"
b100000100000111 /#
b0 i
b0 {
b0 j
b0 z
b111 a
b111 W"
b10 b
b10 4"
b10 V"
b10 )#
b1 c
b1 3"
b1 U"
b1 (#
b110011 f
b110011 |
b110011 R"
b11111111111111111111111111111011 V
b11111111111111111111111111111011 n
b11111111111111111111111111111011 r
b0 =
b0 #"
b0 t"
b11111111111111111111111111111011 &
b11111111111111111111111111111011 h"
b11111111111111111111111111111011 U
b11111111111111111111111111111011 t
b11111111111111111111111111111011 2"
b11111111111111111111111111111000 -
b11111111111111111111111111111000 '#
b11111111111111111111111111111000 +#
b100000 ?
b100000 E"
b100000 G"
b100000 M"
b11100 @
b11100 ?"
b11100 B"
b11100 C"
b11100 L"
b11100 d
b11100 P"
b11100 T"
b11000 e
b11000 O"
b11000 S"
b1000001000001110110011 h
b1000001000001110110011 N"
0G
b11 F
b11 f"
b11 l"
b110111 O
b110111 :"
b110111 ^"
b110 J
b110 7"
b110 c"
b110 k"
b11 K
b11 8"
b11 b"
b1000 L
b1000 9"
b1000 a"
b11111111111111111111111111111011 H
b11111111111111111111111111111011 0"
b11111111111111111111111111111011 e"
b10010001101000101000000000000 S
b10010001101000101000000000000 s
b10010001101000101000000000000 w
b10010001101000101000000000000 ]"
b10010001101000101000000000000 i"
b11000 M
b11000 `"
b11000 j"
b10010001101000101000000010100 E
b10010001101000101000000010100 v
b10010001101000101000000010100 H"
b10100 N
b10100 x
b10100 _"
b10100 :
b10100 p"
b10100 v"
b101 9
b101 6"
b101 q"
b101 w"
b1 ;
b1 o"
b1 u"
b1111 <
b1111 $"
b1111 n"
b1 >
b1 %"
b1 )"
b1 /"
b1 m"
b1 s"
b10000 .
b10000 |"
b10000 ##
b100 ,
b100 5"
b100 }"
b100 *#
b11111111111111111111111111111000 /
b11111111111111111111111111111000 {"
b11111111111111111111111111111000 $#
b11111111111111111111111111111000 1
b11111111111111111111111111111000 ("
b11111111111111111111111111111000 ."
b11111111111111111111111111111000 y"
b11111111111111111111111111111000 !#
1!
#160000
0!
#170000
b1010 V
b1010 n
b1010 r
b11001 X
b11001 q
b11001 g"
b10000000010 k
b10000000010 ["
b10000000010 1#
b1 m
b1 }
b1 Q"
b1 -
b1 '#
b1 +#
bx =
bx #"
bx t"
b1010 &
b1010 h"
b1010 U
b1010 t
b1010 2"
b1111 W
b1111 p
b1111 ,"
b100000000100000100001000 /#
b100000 i
b100000 {
b1000 a
b1000 W"
b100100 )
b100100 A"
b100100 I"
b1100001000010010110011 A
b1100001000010010110011 >"
b1100001000010010110011 K"
b10100 .
b10100 |"
b10100 ##
b101 ,
b101 5"
b101 }"
b101 *#
b1 /
b1 {"
b1 $#
b0 0
b0 z"
b0 "#
b1 1
b1 ("
b1 ."
b1 y"
b1 !#
b11 8
b11 r"
b11 x"
b11000 :
b11000 p"
b11000 v"
b110 9
b110 6"
b110 q"
b110 w"
b10010001101000101000000000000 ;
b10010001101000101000000000000 o"
b10010001101000101000000000000 u"
b11111111111111111111111111111011 <
b11111111111111111111111111111011 $"
b11111111111111111111111111111011 n"
b11111111111111111111111111111011 >
b11111111111111111111111111111011 %"
b11111111111111111111111111111011 )"
b11111111111111111111111111111011 /"
b11111111111111111111111111111011 m"
b11111111111111111111111111111011 s"
b0 F
b0 f"
b0 l"
b110011 O
b110011 :"
b110011 ^"
b111 J
b111 7"
b111 c"
b111 k"
b10 K
b10 8"
b10 b"
b1 L
b1 9"
b1 a"
b1010 H
b1010 0"
b1010 e"
b1111 I
b1111 *"
b1111 d"
b10 S
b10 s
b10 w
b10 ]"
b10 i"
b11100 M
b11100 `"
b11100 j"
b11010 E
b11010 v
b11010 H"
b11000 N
b11000 x
b11000 _"
b100000 d
b100000 P"
b100000 T"
b11100 e
b11100 O"
b11100 S"
b1000000001000001000010000110011 h
b1000000001000001000010000110011 N"
b100100 ?
b100100 E"
b100100 G"
b100100 M"
b100000 @
b100000 ?"
b100000 B"
b100000 C"
b100000 L"
1!
#180000
0!
#190000
b11 k
b11 ["
b11 1#
b0 m
b0 }
b0 Q"
b11111111111111111111111111111011 _
b11111111111111111111111111111011 Y"
b11111111111111111111111111111011 ,#
b101000 )
b101000 A"
b101000 I"
b1000000001100001000010100110011 A
b1000000001100001000010100110011 >"
b1000000001100001000010100110011 K"
b110000100001001 /#
b0 i
b0 {
b1001 a
b1001 W"
b11 b
b11 4"
b11 V"
b11 )#
b101 X
b101 q
b101 g"
b0 =
b0 #"
b0 t"
b10010001101000101000000000000 -
b10010001101000101000000000000 '#
b10010001101000101000000000000 +#
b101000 ?
b101000 E"
b101000 G"
b101000 M"
b100100 @
b100100 ?"
b100100 B"
b100100 C"
b100100 L"
b100100 d
b100100 P"
b100100 T"
b100000 e
b100000 O"
b100000 S"
b1100001000010010110011 h
b1100001000010010110011 N"
b1 Y
b1 o
b1 \"
b1000 J
b1000 7"
b1000 c"
b1000 k"
b10000000010 S
b10000000010 s
b10000000010 w
b10000000010 ]"
b10000000010 i"
b100000 M
b100000 `"
b100000 j"
b10000011110 E
b10000011110 v
b10000011110 H"
b11100 N
b11100 x
b11100 _"
b0 8
b0 r"
b0 x"
b11100 :
b11100 p"
b11100 v"
b111 9
b111 6"
b111 q"
b111 w"
b10 ;
b10 o"
b10 u"
b1010 <
b1010 $"
b1010 n"
b11001 >
b11001 %"
b11001 )"
b11001 /"
b11001 m"
b11001 s"
b11 +
b11 ~"
b11 %#
b11000 .
b11000 |"
b11000 ##
b110 ,
b110 5"
b110 }"
b110 *#
b10010001101000101000000000000 /
b10010001101000101000000000000 {"
b10010001101000101000000000000 $#
bx 0
bx z"
bx "#
b11111111111111111111111111111011 1
b11111111111111111111111111111011 ("
b11111111111111111111111111111011 ."
b11111111111111111111111111111011 y"
b11111111111111111111111111111011 !#
1!
#200000
0!
