riscv_processor_mc.vcd
$date
	Sun Dec 14 13:13:08 2025
$end
$version
	Icarus Verilog
$end
$timescale
	1ps
$end
$scope module testbench_mc $end
$var reg 1 ! clk $end
$var reg 1 " rst $end
$var integer 32 # failed_tests [31:0] $end
$var integer 32 $ passed_tests [31:0] $end
$var integer 32 % total_tests [31:0] $end
$scope module dut $end
$var wire 1 ! clk $end
$var wire 1 " rst $end
$var wire 32 & write_data [31:0] $end
$var wire 1 ' we_rf $end
$var wire 1 ( we_pc $end
$var wire 1 ) we_mem $end
$var wire 1 * we_ir $end
$var wire 2 + sel_result [1:0] $end
$var wire 1 , sel_pc_src $end
$var wire 1 - sel_mem_addr $end
$var wire 3 . sel_ext [2:0] $end
$var wire 2 / sel_alu_src_b [1:0] $end
$var wire 2 0 sel_alu_src_a [1:0] $end
$var wire 5 1 rs2 [4:0] $end
$var wire 5 2 rs1 [4:0] $end
$var wire 32 3 reg_rd2 [31:0] $end
$var wire 32 4 reg_rd1 [31:0] $end
$var wire 32 5 rd2 [31:0] $end
$var wire 32 6 rd1 [31:0] $end
$var wire 5 7 rd [4:0] $end
$var wire 32 8 pc_plus4 [31:0] $end
$var wire 32 9 pc_next [31:0] $end
$var wire 32 : pc_current [31:0] $end
$var wire 7 ; op [6:0] $end
$var wire 32 < old_pc [31:0] $end
$var wire 32 = mem_read [31:0] $end
$var wire 32 > mem_addr [31:0] $end
$var wire 32 ? instruction [31:0] $end
$var wire 32 @ imm_ext [31:0] $end
$var wire 1 A funct7_5 $end
$var wire 3 B funct3 [2:0] $end
$var wire 32 C data [31:0] $end
$var wire 1 D alu_zero $end
$var wire 32 E alu_src_b [31:0] $end
$var wire 32 F alu_src_a [31:0] $end
$var wire 32 G alu_result [31:0] $end
$var wire 32 H alu_out [31:0] $end
$var wire 4 I alu_control [3:0] $end
$scope module MEM $end
$var wire 1 ! clk $end
$var wire 32 J rd [31:0] $end
$var wire 32 K word_addr [31:0] $end
$var wire 1 ) we $end
$var wire 32 L wd [31:0] $end
$var wire 32 M addr [31:0] $end
$var parameter 32 N MEM_DEPTH $end
$upscope $end
$scope module alu_inst $end
$var wire 1 D zero $end
$var wire 32 O b [31:0] $end
$var wire 4 P alu_control [3:0] $end
$var wire 32 Q a [31:0] $end
$var reg 32 R result [31:0] $end
$upscope $end
$scope module alu_reg $end
$var wire 1 ! clk $end
$var wire 32 S d [31:0] $end
$var wire 1 T en $end
$var wire 1 " rst $end
$var reg 32 U q [31:0] $end
$upscope $end
$scope module alu_src_a_mux $end
$var wire 32 V d3 [31:0] $end
$var wire 2 W sel [1:0] $end
$var wire 32 X d2 [31:0] $end
$var wire 32 Y d1 [31:0] $end
$var wire 32 Z d0 [31:0] $end
$var parameter 32 [ WIDTH $end
$var reg 32 \ y [31:0] $end
$upscope $end
$scope module alu_src_b_mux $end
$var wire 32 ] d2 [31:0] $end
$var wire 32 ^ d3 [31:0] $end
$var wire 2 _ sel [1:0] $end
$var wire 32 ` d1 [31:0] $end
$var wire 32 a d0 [31:0] $end
$var parameter 32 b WIDTH $end
$var reg 32 c y [31:0] $end
$upscope $end
$scope module ctrl $end
$var wire 1 ! clk $end
$var wire 3 d funct3 [2:0] $end
$var wire 1 A funct7_5 $end
$var wire 7 e op [6:0] $end
$var wire 1 " rst $end
$var wire 1 ( we_pc $end
$var wire 1 D zero $end
$var wire 1 ' we_rf $end
$var wire 1 ) we_mem $end
$var wire 1 * we_ir $end
$var wire 2 f sel_result [1:0] $end
$var wire 1 , sel_pc_src $end
$var wire 1 - sel_mem_addr $end
$var wire 3 g sel_ext [2:0] $end
$var wire 2 h sel_alu_src_b [1:0] $end
$var wire 2 i sel_alu_src_a [1:0] $end
$var wire 1 j pc_update $end
$var wire 1 k branch $end
$var wire 2 l alu_op [1:0] $end
$var wire 4 m alu_control [3:0] $end
$scope module alu_dec $end
$var wire 3 n funct3 [2:0] $end
$var wire 1 A funct7_5 $end
$var wire 2 o alu_op [1:0] $end
$var reg 4 p alu_control [3:0] $end
$upscope $end
$scope module fsm_inst $end
$var wire 1 ! clk $end
$var wire 7 q op [6:0] $end
$var wire 1 " rst $end
$var wire 1 D zero $end
$var parameter 7 r OP_BEQ $end
$var parameter 7 s OP_I_ARITH $end
$var parameter 7 t OP_JAL $end
$var parameter 7 u OP_LUI $end
$var parameter 7 v OP_LW $end
$var parameter 7 w OP_R_TYPE $end
$var parameter 7 x OP_SW $end
$var parameter 4 y S0_FETCH $end
$var parameter 4 z S10_JAL $end
$var parameter 4 { S11_LUI $end
$var parameter 4 | S1_DECODE $end
$var parameter 4 } S2_EXE_ADDR $end
$var parameter 4 ~ S3_MEM_RD $end
$var parameter 4 !" S4_WB_MEM $end
$var parameter 4 "" S5_MEM_WR $end
$var parameter 4 #" S6_EXE_R $end
$var parameter 4 $" S7_WB_ALU $end
$var parameter 4 %" S8_BEQ $end
$var parameter 4 &" S9_EXE_I $end
$var reg 2 '" alu_op [1:0] $end
$var reg 1 k branch $end
$var reg 4 (" current_state [3:0] $end
$var reg 4 )" next_state [3:0] $end
$var reg 1 j pc_update $end
$var reg 2 *" sel_alu_src_a [1:0] $end
$var reg 2 +" sel_alu_src_b [1:0] $end
$var reg 1 - sel_mem_addr $end
$var reg 1 , sel_pc_src $end
$var reg 2 ," sel_result [1:0] $end
$var reg 1 * we_ir $end
$var reg 1 ) we_mem $end
$var reg 1 ' we_rf $end
$upscope $end
$scope module instr_dec $end
$var wire 7 -" op [6:0] $end
$var parameter 7 ." OP_BEQ $end
$var parameter 7 /" OP_I_ARITH $end
$var parameter 7 0" OP_JAL $end
$var parameter 7 1" OP_LUI $end
$var parameter 7 2" OP_LW $end
$var parameter 7 3" OP_R_TYPE $end
$var parameter 7 4" OP_SW $end
$var reg 3 5" sel_ext [2:0] $end
$upscope $end
$upscope $end
$scope module data_reg $end
$var wire 1 ! clk $end
$var wire 32 6" d [31:0] $end
$var wire 1 7" en $end
$var wire 1 " rst $end
$var reg 32 8" q [31:0] $end
$upscope $end
$scope module instr_reg $end
$var wire 1 ! clk $end
$var wire 32 9" d [31:0] $end
$var wire 1 * en $end
$var wire 1 " rst $end
$var reg 32 :" q [31:0] $end
$upscope $end
$scope module mem_addr_mux $end
$var wire 32 ;" d1 [31:0] $end
$var wire 1 - sel $end
$var wire 32 <" y [31:0] $end
$var wire 32 =" d0 [31:0] $end
$var parameter 32 >" WIDTH $end
$upscope $end
$scope module old_pc_reg $end
$var wire 1 ! clk $end
$var wire 1 * en $end
$var wire 1 " rst $end
$var wire 32 ?" d [31:0] $end
$var reg 32 @" q [31:0] $end
$upscope $end
$scope module pc_next_mux $end
$var wire 32 A" d0 [31:0] $end
$var wire 32 B" d1 [31:0] $end
$var wire 1 , sel $end
$var wire 32 C" y [31:0] $end
$var parameter 32 D" WIDTH $end
$upscope $end
$scope module pc_plus4_reg $end
$var wire 1 ! clk $end
$var wire 32 E" d [31:0] $end
$var wire 1 * en $end
$var wire 1 " rst $end
$var reg 32 F" q [31:0] $end
$upscope $end
$scope module pc_reg $end
$var wire 1 ! clk $end
$var wire 1 ( en $end
$var wire 32 G" pc_next [31:0] $end
$var wire 1 " rst $end
$var reg 32 H" pc_current [31:0] $end
$upscope $end
$scope module rd1_reg $end
$var wire 1 ! clk $end
$var wire 1 I" en $end
$var wire 1 " rst $end
$var wire 32 J" d [31:0] $end
$var reg 32 K" q [31:0] $end
$upscope $end
$scope module rd2_reg $end
$var wire 1 ! clk $end
$var wire 1 L" en $end
$var wire 1 " rst $end
$var wire 32 M" d [31:0] $end
$var reg 32 N" q [31:0] $end
$upscope $end
$scope module reg_file $end
$var wire 5 O" a1 [4:0] $end
$var wire 5 P" a2 [4:0] $end
$var wire 5 Q" a3 [4:0] $end
$var wire 1 ! clk $end
$var wire 1 " rst $end
$var wire 1 ' we $end
$var wire 32 R" wd [31:0] $end
$var wire 32 S" rd2 [31:0] $end
$var wire 32 T" rd1 [31:0] $end
$var integer 32 U" i [31:0] $end
$upscope $end
$scope module result_mux $end
$var wire 32 V" d0 [31:0] $end
$var wire 32 W" d1 [31:0] $end
$var wire 32 X" d2 [31:0] $end
$var wire 2 Y" sel [1:0] $end
$var wire 32 Z" d3 [31:0] $end
$var parameter 32 [" WIDTH $end
$var reg 32 \" y [31:0] $end
$upscope $end
$scope module sign_ext $end
$var wire 25 ]" instr [31:7] $end
$var wire 3 ^" sel_ext [2:0] $end
$var reg 32 _" imm_ext [31:0] $end
$upscope $end
$upscope $end
$scope task check_memory $end
$var reg 32 `" addr [31:0] $end
$var reg 32 a" expected [31:0] $end
$var reg 1601 b" test_name [1600:0] $end
$upscope $end
$scope task check_register $end
$var reg 32 c" expected [31:0] $end
$var reg 5 d" reg_num [4:0] $end
$var reg 1601 e" test_name [1600:0] $end
$upscope $end
$upscope $end
$enddefinitions $end
$comment Show the parameter values. $end
$dumpall
b100000 ["
b100000 D"
b100000 >"
b100011 4"
b110011 3"
b11 2"
b110111 1"
b1101111 0"
b10011 /"
b1100011 ."
b1001 &"
b1000 %"
b111 $"
b110 #"
b101 ""
b100 !"
b11 ~
b10 }
b1 |
b1011 {
b1010 z
b0 y
b100011 x
b110011 w
b11 v
b110111 u
b1101111 t
b10011 s
b1100011 r
b100000 b
b100000 [
b100000000 N
$end
#0
$dumpvars
bx e"
bx d"
bx c"
bx b"
bx a"
bx `"
b0 _"
b0 ^"
b0 ]"
b0 \"
b0 Z"
b10 Y"
b0 X"
b0 W"
b0 V"
b100000 U"
b0 T"
b0 S"
b0 R"
b0 Q"
b0 P"
b0 O"
b0 N"
b0 M"
1L"
b0 K"
b0 J"
1I"
b0 H"
b100 G"
b0 F"
b100 E"
b100 C"
b0 B"
b100 A"
b0 @"
b0 ?"
b0 ="
b0 <"
b0 ;"
b0 :"
b111100000000000010010011 9"
b0 8"
17"
b111100000000000010010011 6"
b0 5"
b0 -"
b10 ,"
b10 +"
b0 *"
b1 )"
b0 ("
b0 '"
b0 q
b0 p
b0 o
b0 n
b0 m
b0 l
0k
1j
b0 i
b10 h
b0 g
b10 f
b0 e
b0 d
b100 c
b0 a
b0 `
b10 _
b0 ^
b100 ]
b0 \
b0 Z
b0 Y
b0 X
b0 W
b0 V
b0 U
1T
b100 S
b100 R
b0 Q
b0 P
b100 O
b0 M
b0 L
b0 K
b111100000000000010010011 J
b0 I
b100 H
b0 G
b0 F
b100 E
0D
b0 C
b0 B
0A
b0 @
b0 ?
b0 >
b111100000000000010010011 =
b0 <
b0 ;
b0 :
b100 9
b0 8
b0 7
b0 6
b0 5
b0 4
b0 3
b0 2
b0 1
b0 0
b10 /
b0 .
0-
0,
b10 +
1*
0)
1(
0'
b0 &
b0 %
b0 $
b0 #
1"
0!
$end
#10000
b100000 U"
1!
#20000
0!
#25000
0"
#30000
b101000000000000100010011 =
b101000000000000100010011 J
b101000000000000100010011 6"
b101000000000000100010011 9"
b1 K
b1111 @
b1111 `
b1111 Z"
b1111 _"
0(
b0 E
b0 O
b0 c
b100 >
b100 M
b100 <"
b100 F
b100 Q
b100 \
b11110000000000001 ]"
b1111 1
b1111 P"
b1 7
b1 Q"
b10011 ;
b10011 e
b10011 q
b10011 -"
b100 &
b100 R"
b100 \"
0j
b0 +
b0 f
b0 ,"
b0 Y"
b0 /
b0 _
b0 h
b0 +"
0*
b1001 )"
b100 :
b100 Z
b100 ="
b100 ?"
b100 H"
b111100000000000010010011 ?
b111100000000000010010011 :"
b111100000000000010010011 C
b111100000000000010010011 8"
b111100000000000010010011 W"
b100 G
b100 U
b100 ;"
b100 B"
b100 V"
b100 8
b100 F"
b100 X"
b1 ("
1!
#40000
0!
#50000
b1111 9
b1111 C"
b1111 G"
b1111 H
b1111 R
b1111 S
b1111 A"
b1111 E"
b1111 E
b1111 O
b1111 c
b0 F
b0 Q
b0 \
b11 l
b11 o
b11 '"
b1 /
b1 _
b1 h
b1 +"
b10 0
b10 W
b10 i
b10 *"
b111 )"
b1001 ("
b101000000000000100010011 C
b101000000000000100010011 8"
b101000000000000100010011 W"
1!
#60000
0!
#70000
b100 9
b100 C"
b100 G"
b100 H
b100 R
b100 S
b100 A"
b100 E"
b0 E
b0 O
b0 c
b100 F
b100 Q
b100 \
b1111 &
b1111 R"
b1111 \"
b0 )"
1'
b0 l
b0 o
b0 '"
b0 /
b0 _
b0 h
b0 +"
b0 0
b0 W
b0 i
b0 *"
b1111 G
b1111 U
b1111 ;"
b1111 B"
b1111 V"
b111 ("
1!
#80000
0!
#90000
b1000 9
b1000 C"
b1000 G"
b1000 H
b1000 R
b1000 S
b1000 A"
b1000 E"
1(
b100 E
b100 O
b100 c
1j
b10 +
b10 f
b10 ,"
b10 Y"
b10 /
b10 _
b10 h
b10 +"
1*
0'
b1 )"
b100 &
b100 R"
b100 \"
b0 ("
b100 G
b100 U
b100 ;"
b100 B"
b100 V"
1!
#100000
0!
#110000
b11111111101100000000000110010011 =
b11111111101100000000000110010011 J
b11111111101100000000000110010011 6"
b11111111101100000000000110010011 9"
b10 K
b1010 @
b1010 `
b1010 Z"
b1010 _"
0(
b0 E
b0 O
b0 c
b1000 >
b1000 M
b1000 <"
b1000 F
b1000 Q
b1000 \
b10100000000000010 ]"
b1010 1
b1010 P"
b10 7
b10 Q"
b1000 &
b1000 R"
b1000 \"
b1001 )"
0j
b0 +
b0 f
b0 ,"
b0 Y"
b0 /
b0 _
b0 h
b0 +"
0*
b1000 :
b1000 Z
b1000 ="
b1000 ?"
b1000 H"
b100 <
b100 Y
b100 @"
b101000000000000100010011 ?
b101000000000000100010011 :"
b1000 G
b1000 U
b1000 ;"
b1000 B"
b1000 V"
b1000 8
b1000 F"
b1000 X"
b1 ("
1!
#120000
0!
#130000
b1010 9
b1010 C"
b1010 G"
b1010 H
b1010 R
b1010 S
b1010 A"
b1010 E"
b1010 E
b1010 O
b1010 c
b0 F
b0 Q
b0 \
b11 l
b11 o
b11 '"
b1 /
b1 _
b1 h
b1 +"
b10 0
b10 W
b10 i
b10 *"
b111 )"
b1001 ("
b11111111101100000000000110010011 C
b11111111101100000000000110010011 8"
b11111111101100000000000110010011 W"
1!
#140000
0!
#150000
b1000 9
b1000 C"
b1000 G"
b1000 H
b1000 R
b1000 S
b1000 A"
b1000 E"
b0 E
b0 O
b0 c
b1000 F
b1000 Q
b1000 \
b1010 &
b1010 R"
b1010 \"
b0 )"
1'
b0 l
b0 o
b0 '"
b0 /
b0 _
b0 h
b0 +"
b0 0
b0 W
b0 i
b0 *"
b1010 G
b1010 U
b1010 ;"
b1010 B"
b1010 V"
b111 ("
1!
#160000
0!
#170000
b1100 9
b1100 C"
b1100 G"
b1100 H
b1100 R
b1100 S
b1100 A"
b1100 E"
1(
b100 E
b100 O
b100 c
1j
b10 +
b10 f
b10 ,"
b10 Y"
b10 /
b10 _
b10 h
b10 +"
1*
0'
b1 )"
b1000 &
b1000 R"
b1000 \"
b0 ("
b1000 G
b1000 U
b1000 ;"
b1000 B"
b1000 V"
1!
#180000
0!
#190000
b11111111100000000000001000010011 =
b11111111100000000000001000010011 J
b11111111100000000000001000010011 6"
b11111111100000000000001000010011 9"
b11 K
b11111111111111111111111111111011 @
b11111111111111111111111111111011 `
b11111111111111111111111111111011 Z"
b11111111111111111111111111111011 _"
0(
b0 E
b0 O
b0 c
b1100 >
b1100 M
b1100 <"
b1100 F
b1100 Q
b1100 \
b1111111110110000000000011 ]"
1A
b11011 1
b11011 P"
b11 7
b11 Q"
b1100 &
b1100 R"
b1100 \"
b1001 )"
0j
b0 +
b0 f
b0 ,"
b0 Y"
b0 /
b0 _
b0 h
b0 +"
0*
b1100 :
b1100 Z
b1100 ="
b1100 ?"
b1100 H"
b1000 <
b1000 Y
b1000 @"
b11111111101100000000000110010011 ?
b11111111101100000000000110010011 :"
b1100 G
b1100 U
b1100 ;"
b1100 B"
b1100 V"
b1100 8
b1100 F"
b1100 X"
b1 ("
1!
#200000
0!
#210000
b11111111111111111111111111111011 9
b11111111111111111111111111111011 C"
b11111111111111111111111111111011 G"
b11111111111111111111111111111011 H
b11111111111111111111111111111011 R
b11111111111111111111111111111011 S
b11111111111111111111111111111011 A"
b11111111111111111111111111111011 E"
b11111111111111111111111111111011 E
b11111111111111111111111111111011 O
b11111111111111111111111111111011 c
b0 F
b0 Q
b0 \
b11 l
b11 o
b11 '"
b1 /
b1 _
b1 h
b1 +"
b10 0
b10 W
b10 i
b10 *"
b111 )"
b1001 ("
b11111111100000000000001000010011 C
b11111111100000000000001000010011 8"
b11111111100000000000001000010011 W"
1!
#220000
0!
#230000
b1100 9
b1100 C"
b1100 G"
b1100 H
b1100 R
b1100 S
b1100 A"
b1100 E"
b0 E
b0 O
b0 c
b1100 F
b1100 Q
b1100 \
b11111111111111111111111111111011 &
b11111111111111111111111111111011 R"
b11111111111111111111111111111011 \"
b0 )"
1'
b0 l
b0 o
b0 '"
b0 /
b0 _
b0 h
b0 +"
b0 0
b0 W
b0 i
b0 *"
b11111111111111111111111111111011 G
b11111111111111111111111111111011 U
b11111111111111111111111111111011 ;"
b11111111111111111111111111111011 B"
b11111111111111111111111111111011 V"
b111 ("
1!
#240000
0!
#250000
b10000 9
b10000 C"
b10000 G"
b10000 H
b10000 R
b10000 S
b10000 A"
b10000 E"
1(
b100 E
b100 O
b100 c
1j
b10 +
b10 f
b10 ,"
b10 Y"
b10 /
b10 _
b10 h
b10 +"
1*
0'
b1 )"
b1100 &
b1100 R"
b1100 \"
b0 ("
b1100 G
b1100 U
b1100 ;"
b1100 B"
b1100 V"
1!
#260000
0!
#270000
b100000000001010010011 =
b100000000001010010011 J
b100000000001010010011 6"
b100000000001010010011 9"
b100 K
b11111111111111111111111111111000 @
b11111111111111111111111111111000 `
b11111111111111111111111111111000 Z"
b11111111111111111111111111111000 _"
0(
b0 E
b0 O
b0 c
b10000 >
b10000 M
b10000 <"
b10000 F
b10000 Q
b10000 \
b1111111110000000000000100 ]"
b11000 1
b11000 P"
b100 7
b100 Q"
b10000 &
b10000 R"
b10000 \"
b1001 )"
0j
b0 +
b0 f
b0 ,"
b0 Y"
b0 /
b0 _
b0 h
b0 +"
0*
b10000 :
b10000 Z
b10000 ="
b10000 ?"
b10000 H"
b1100 <
b1100 Y
b1100 @"
b11111111100000000000001000010011 ?
b11111111100000000000001000010011 :"
b10000 G
b10000 U
b10000 ;"
b10000 B"
b10000 V"
b10000 8
b10000 F"
b10000 X"
b1 ("
1!
#280000
0!
#290000
b11111111111111111111111111111000 9
b11111111111111111111111111111000 C"
b11111111111111111111111111111000 G"
b11111111111111111111111111111000 H
b11111111111111111111111111111000 R
b11111111111111111111111111111000 S
b11111111111111111111111111111000 A"
b11111111111111111111111111111000 E"
b11111111111111111111111111111000 E
b11111111111111111111111111111000 O
b11111111111111111111111111111000 c
b0 F
b0 Q
b0 \
b11 l
b11 o
b11 '"
b1 /
b1 _
b1 h
b1 +"
b10 0
b10 W
b10 i
b10 *"
b111 )"
b1001 ("
b100000000001010010011 C
b100000000001010010011 8"
b100000000001010010011 W"
1!
#300000
0!
#310000
b10000 9
b10000 C"
b10000 G"
b10000 H
b10000 R
b10000 S
b10000 A"
b10000 E"
b0 E
b0 O
b0 c
b10000 F
b10000 Q
b10000 \
b11111111111111111111111111111000 &
b11111111111111111111111111111000 R"
b11111111111111111111111111111000 \"
b0 )"
1'
b0 l
b0 o
b0 '"
b0 /
b0 _
b0 h
b0 +"
b0 0
b0 W
b0 i
b0 *"
b11111111111111111111111111111000 G
b11111111111111111111111111111000 U
b11111111111111111111111111111000 ;"
b11111111111111111111111111111000 B"
b11111111111111111111111111111000 V"
b111 ("
1!
#320000
0!
#330000
b10100 9
b10100 C"
b10100 G"
b10100 H
b10100 R
b10100 S
b10100 A"
b10100 E"
1(
b100 E
b100 O
b100 c
1j
b10 +
b10 f
b10 ,"
b10 Y"
b10 /
b10 _
b10 h
b10 +"
1*
0'
b1 )"
b10000 &
b10000 R"
b10000 \"
b0 ("
b10000 G
b10000 U
b10000 ;"
b10000 B"
b10000 V"
1!
#340000
0!
#350000
b10010001101000101001100110111 =
b10010001101000101001100110111 J
b10010001101000101001100110111 6"
b10010001101000101001100110111 9"
b101 K
b1 @
b1 `
b1 Z"
b1 _"
b1111 3
b1111 M"
b1111 S"
0(
b0 E
b0 O
b0 c
b10100 >
b10100 M
b10100 <"
b10100 F
b10100 Q
b10100 \
b10000000000101 ]"
0A
b1 1
b1 P"
b101 7
b101 Q"
b10100 &
b10100 R"
b10100 \"
b1001 )"
0j
b0 +
b0 f
b0 ,"
b0 Y"
b0 /
b0 _
b0 h
b0 +"
0*
b10100 :
b10100 Z
b10100 ="
b10100 ?"
b10100 H"
b10000 <
b10000 Y
b10000 @"
b100000000001010010011 ?
b100000000001010010011 :"
b10100 G
b10100 U
b10100 ;"
b10100 B"
b10100 V"
b10100 8
b10100 F"
b10100 X"
b1 ("
1!
#360000
0!
#370000
b1 9
b1 C"
b1 G"
b0 F
b0 Q
b0 \
b1 H
b1 R
b1 S
b1 A"
b1 E"
b11 l
b11 o
b11 '"
b1 /
b1 _
b1 h
b1 +"
b10 0
b10 W
b10 i
b10 *"
b111 )"
b1 E
b1 O
b1 c
b1001 ("
b1111 5
b1111 L
b1111 a
b1111 N"
b10010001101000101001100110111 C
b10010001101000101001100110111 8"
b10010001101000101001100110111 W"
1!
#380000
0!
#390000
b100011 9
b100011 C"
b100011 G"
b100011 H
b100011 R
b100011 S
b100011 A"
b100011 E"
b1111 E
b1111 O
b1111 c
b10100 F
b10100 Q
b10100 \
b1 &
b1 R"
b1 \"
b0 )"
1'
b0 l
b0 o
b0 '"
b0 /
b0 _
b0 h
b0 +"
b0 0
b0 W
b0 i
b0 *"
b1 G
b1 U
b1 ;"
b1 B"
b1 V"
b111 ("
1!
#400000
0!
#410000
b11000 9
b11000 C"
b11000 G"
b11000 H
b11000 R
b11000 S
b11000 A"
b11000 E"
1(
b100 E
b100 O
b100 c
1j
b10 +
b10 f
b10 ,"
b10 Y"
b10 /
b10 _
b10 h
b10 +"
1*
0'
b1 )"
b10100 &
b10100 R"
b10100 \"
b0 ("
b100011 G
b100011 U
b100011 ;"
b100011 B"
b100011 V"
1!
#420000
0!
#430000
b100111 9
b100111 C"
b100111 G"
b1000001000001110110011 =
b1000001000001110110011 J
b1000001000001110110011 6"
b1000001000001110110011 9"
b110 K
b100111 H
b100111 R
b100111 S
b100111 A"
b100111 E"
b10010001101000101000000000000 @
b10010001101000101000000000000 `
b10010001101000101000000000000 Z"
b10010001101000101000000000000 _"
b11111111111111111111111111111011 3
b11111111111111111111111111111011 M"
b11111111111111111111111111111011 S"
b100 .
b100 g
b100 5"
b100 ^"
0(
b1111 E
b1111 O
b1111 c
b11000 >
b11000 M
b11000 <"
b11000 F
b11000 Q
b11000 \
b1001000110100010100110 ]"
b11 1
b11 P"
b1000 2
b1000 O"
b101 B
b101 d
b101 n
b110 7
b110 Q"
b110111 ;
b110111 e
b110111 q
b110111 -"
b11000 &
b11000 R"
b11000 \"
b1011 )"
0j
b0 +
b0 f
b0 ,"
b0 Y"
b0 /
b0 _
b0 h
b0 +"
0*
b11000 :
b11000 Z
b11000 ="
b11000 ?"
b11000 H"
b10100 <
b10100 Y
b10100 @"
b10010001101000101001100110111 ?
b10010001101000101001100110111 :"
b11000 G
b11000 U
b11000 ;"
b11000 B"
b11000 V"
b11000 8
b11000 F"
b11000 X"
b1 ("
1!
#440000
0!
#450000
b10011 9
b10011 C"
b10011 G"
b10011 H
b10011 R
b10011 S
b10011 A"
b10011 E"
b0 )"
1'
b11 +
b11 f
b11 ,"
b11 Y"
b11111111111111111111111111111011 E
b11111111111111111111111111111011 O
b11111111111111111111111111111011 c
b10010001101000101000000000000 &
b10010001101000101000000000000 R"
b10010001101000101000000000000 \"
b1011 ("
b100111 G
b100111 U
b100111 ;"
b100111 B"
b100111 V"
b11111111111111111111111111111011 5
b11111111111111111111111111111011 L
b11111111111111111111111111111011 a
b11111111111111111111111111111011 N"
b1000001000001110110011 C
b1000001000001110110011 8"
b1000001000001110110011 W"
1!
#460000
0!
#470000
b11100 9
b11100 C"
b11100 G"
b11100 H
b11100 R
b11100 S
b11100 A"
b11100 E"
1(
b100 E
b100 O
b100 c
b11000 &
b11000 R"
b11000 \"
1j
b10 /
b10 _
b10 h
b10 +"
1*
b10 +
b10 f
b10 ,"
b10 Y"
0'
b1 )"
b10011 G
b10011 U
b10011 ;"
b10011 B"
b10011 V"
b0 ("
1!
#480000
0!
#490000
b10111 9
b10111 C"
b10111 G"
0(
b11111111111111111111111111111011 E
b11111111111111111111111111111011 O
b11111111111111111111111111111011 c
b10 @
b10 `
b10 Z"
b10 _"
b1010 3
b1010 M"
b1010 S"
b1111 4
b1111 J"
b1111 T"
b0 .
b0 g
b0 5"
b0 ^"
b1000000001000001000010000110011 =
b1000000001000001000010000110011 J
b1000000001000001000010000110011 6"
b1000000001000001000010000110011 9"
b111 K
b10111 H
b10111 R
b10111 S
b10111 A"
b10111 E"
b110 )"
0j
b0 +
b0 f
b0 ,"
b0 Y"
b0 /
b0 _
b0 h
b0 +"
0*
b11100 &
b11100 R"
b11100 \"
b100000100000111 ]"
b10 1
b10 P"
b1 2
b1 O"
b0 B
b0 d
b0 n
b111 7
b111 Q"
b110011 ;
b110011 e
b110011 q
b110011 -"
b11100 >
b11100 M
b11100 <"
b11100 F
b11100 Q
b11100 \
b1 ("
b11100 8
b11100 F"
b11100 X"
b11100 G
b11100 U
b11100 ;"
b11100 B"
b11100 V"
b1000001000001110110011 ?
b1000001000001110110011 :"
b11000 <
b11000 Y
b11000 @"
b11100 :
b11100 Z
b11100 ="
b11100 ?"
b11100 H"
1!
#500000
0!
#510000
b11001 9
b11001 C"
b11001 G"
b11001 H
b11001 R
b11001 S
b11001 A"
b11001 E"
b1111 F
b1111 Q
b1111 \
b1010 E
b1010 O
b1010 c
b10111 &
b10111 R"
b10111 \"
b10 l
b10 o
b10 '"
b10 0
b10 W
b10 i
b10 *"
b111 )"
b1000000001000001000010000110011 C
b1000000001000001000010000110011 8"
b1000000001000001000010000110011 W"
b1111 6
b1111 X
b1111 K"
b1010 5
b1010 L
b1010 a
b1010 N"
b10111 G
b10111 U
b10111 ;"
b10111 B"
b10111 V"
b110 ("
1!
#520000
0!
#530000
b100110 9
b100110 C"
b100110 G"
b100110 H
b100110 R
b100110 S
b100110 A"
b100110 E"
b11100 F
b11100 Q
b11100 \
b0 )"
1'
b0 l
b0 o
b0 '"
b0 0
b0 W
b0 i
b0 *"
b11001 &
b11001 R"
b11001 \"
b111 ("
b11001 G
b11001 U
b11001 ;"
b11001 B"
b11001 V"
1!
#540000
0!
#550000
b100000 9
b100000 C"
b100000 G"
b100000 H
b100000 R
b100000 S
b100000 A"
b100000 E"
1(
b100 E
b100 O
b100 c
b11100 &
b11100 R"
b11100 \"
1j
b10 +
b10 f
b10 ,"
b10 Y"
b10 /
b10 _
b10 h
b10 +"
1*
0'
b1 )"
b100110 G
b100110 U
b100110 ;"
b100110 B"
b100110 V"
b0 ("
1!
#560000
0!
#570000
b101010 9
b101010 C"
b101010 G"
0(
b1010 E
b1010 O
b1010 c
b10000000010 @
b10000000010 `
b10000000010 Z"
b10000000010 _"
b1100001000010010110011 =
b1100001000010010110011 J
b1100001000010010110011 6"
b1100001000010010110011 9"
b1000 K
b101010 H
b101010 R
b101010 S
b101010 A"
b101010 E"
b110 )"
0j
b0 +
b0 f
b0 ,"
b0 Y"
b0 /
b0 _
b0 h
b0 +"
0*
b100000 &
b100000 R"
b100000 \"
b100000000100000100001000 ]"
1A
b1000 7
b1000 Q"
b100000 >
b100000 M
b100000 <"
b100000 F
b100000 Q
b100000 \
b1 ("
b100000 8
b100000 F"
b100000 X"
b100000 G
b100000 U
b100000 ;"
b100000 B"
b100000 V"
b1000000001000001000010000110011 ?
b1000000001000001000010000110011 :"
b11100 <
b11100 Y
b11100 @"
b100000 :
b100000 Z
b100000 ="
b100000 ?"
b100000 H"
1!
#580000
0!
#590000
b101 9
b101 C"
b101 G"
b101 H
b101 R
b101 S
b101 A"
b101 E"
b1 I
b1 P
b1 m
b1 p
b1111 F
b1111 Q
b1111 \
b101010 &
b101010 R"
b101010 \"
b10 l
b10 o
b10 '"
b10 0
b10 W
b10 i
b10 *"
b111 )"
b1100001000010010110011 C
b1100001000010010110011 8"
b1100001000010010110011 W"
b101010 G
b101010 U
b101010 ;"
b101010 B"
b101010 V"
b110 ("
1!
#600000
0!
#610000
b101010 9
b101010 C"
b101010 G"
b101010 H
b101010 R
b101010 S
b101010 A"
b101010 E"
b0 I
b0 P
b0 m
b0 p
b100000 F
b100000 Q
b100000 \
b0 )"
1'
b0 l
b0 o
b0 '"
b0 0
b0 W
b0 i
b0 *"
b101 &
b101 R"
b101 \"
b111 ("
b101 G
b101 U
b101 ;"
b101 B"
b101 V"
1!
#620000
0!
#630000
b100100 9
b100100 C"
b100100 G"
b100100 H
b100100 R
b100100 S
b100100 A"
b100100 E"
1(
b100 E
b100 O
b100 c
b100000 &
b100000 R"
b100000 \"
1j
b10 +
b10 f
b10 ,"
b10 Y"
b10 /
b10 _
b10 h
b10 +"
1*
0'
b1 )"
b101010 G
b101010 U
b101010 ;"
b101010 B"
b101010 V"
b0 ("
1!
#640000
0!
